495,222,273,44.84848484848485,55.15151515151515,1.2297297297297298
FEATURE_ENVY	21	21,6,15,28.57142857142857,71.42857142857143,2.5	1685	3.323442136498516,3.323442136498516,4.747774480712167,5.99406528189911,7.893175074183977,5.99406528189911,3.9169139465875373,5.934718100890208,16.26112759643917,0.11869436201780414,0.2373887240356083,7.893175074183977,7.833827893175075,11.038575667655786,28.427299703264097,32.047477744807125,26.112759643916917,4.56973293768546,56.14243323442136,56.14243323442136,71.81008902077151	2,3,0,2,0,3,3,1,0,0,0,0,1,1,2,0,2,0,0,0,0	0,0,0,0,0,0,0,0,0,0,0,0,0,0,0,0,0,0,0,0,0	0,0,0,0,0,0,1,0,0,0,0,0,0,0,1,0,1,0,0,0,0
DEAD_CODE	86	86,42,44,48.837209302325576,51.162790697674424,1.0476190476190477	1685	0.9495548961424332,1.8397626112759646,0.11869436201780414,0.2373887240356083,0.2967359050445104,0.9495548961424332,1.2462908011869436,1.2462908011869436,0.5934718100890208,0.5934718100890208,0.5934718100890208,0.771513353115727,0.2967359050445104,0.4154302670623145,0.35608308605341243,1.4243323442136497,0.11869436201780414,0.11869436201780414,0.11869436201780414,0.11869436201780414,0.17804154302670622,0.17804154302670622,0.11869436201780414,0.11869436201780414,0.4747774480712166,0.2373887240356083,0.2373887240356083,0.11869436201780414,0.35608308605341243,12.759643916913946,12.759643916913946,0.11869436201780414,0.11869436201780414,0.2373887240356083,0.2373887240356083,2.967359050445104,0.17804154302670622,7.181008902077152,2.7893175074183976,0.35608308605341243,25.044510385756674,36.32047477744807,36.32047477744807,25.044510385756674,36.32047477744807,36.32047477744807,36.32047477744807,0.11869436201780414,14.065281899109792,12.225519287833828,12.225519287833828,43.67952522255193,56.91394658753709,20.59347181008902,20.59347181008902,39.347181008902076,14.3026706231454,14.3026706231454,44.98516320474778,14.3026706231454,14.3026706231454,14.3026706231454,14.3026706231454,36.32047477744807,36.32047477744807,36.32047477744807,36.32047477744807,41.78041543026706,41.78041543026706,41.78041543026706,41.78041543026706,41.78041543026706,41.78041543026706,41.78041543026706,41.78041543026706,41.78041543026706,41.78041543026706,41.78041543026706,41.78041543026706,4.56973293768546,26.52818991097923,26.52818991097923,65.04451038575668,57.566765578635014,62.37388724035608,14.3026706231454	0,0,0,0,0,0,0,0,0,0,0,0,0,0,0,1,0,0,0,0,0,0,0,0,0,0,0,0,0,0,0,0,0,0,0,0,0,0,0,0,0,0,1,0,0,0,2,0,0,0,0,0,0,0,0,0,0,0,0,0,0,0,0,0,0,0,0,0,0,0,0,0,0,0,0,0,0,0,0,0,0,0,0,0,0,0	0,0,0,0,0,0,0,0,0,0,0,0,0,0,0,0,0,0,0,0,0,0,0,0,0,0,0,0,0,0,0,0,0,0,0,0,0,0,0,0,0,0,0,0,0,0,0,0,0,0,0,0,0,0,0,0,0,0,0,0,0,0,0,0,0,0,0,0,0,0,0,0,0,0,0,0,0,0,0,0,0,0,0,0,0,0	0,0,0,0,0,0,0,0,0,0,0,0,0,0,0,1,0,0,0,0,0,0,0,0,0,0,0,0,0,0,0,0,0,0,0,0,0,0,0,0,0,0,0,0,0,0,0,0,0,0,0,0,0,0,0,0,0,0,0,0,0,0,0,0,0,0,0,0,0,0,0,0,0,0,0,0,0,0,0,0,0,0,0,0,0,0
ClASS_DATA_SHOULD_BE_PRIVATE	26	26,8,18,30.76923076923077,69.23076923076923,2.25	1685	0.11869436201780414,16.320474777448073,21.18694362017804,7.9525222551928785,23.204747774480712,20.83086053412463,23.264094955489615,0.11869436201780414,0.11869436201780414,0.11869436201780414,0.11869436201780414,0.2373887240356083,0.2373887240356083,0.2373887240356083,0.2373887240356083,26.350148367952524,12.462908011869436,47.596439169139465,39.16913946587537,71.81008902077151,33.11572700296736,71.81008902077151,38.69436201780416,71.81008902077151,32.10682492581603,9.495548961424333	0,0,0,0,0,0,0,0,0,0,0,0,0,0,0,0,0,0,4,0,0,0,0,0,0,1	0,0,0,0,0,0,0,0,0,0,0,0,0,0,0,0,0,0,0,0,0,0,0,0,0,0	0,0,0,0,0,0,0,0,0,0,0,0,0,0,0,0,0,0,4,0,0,0,0,0,0,1
DATA_CLASS	88	88,61,27,69.31818181818183,30.681818181818183,0.4426229508196721	1685	2.195845697329377,4.807121661721069,28.01186943620178,3.1454005934718103,12.759643916913946,28.01186943620178,28.01186943620178,0.11869436201780414,0.11869436201780414,0.11869436201780414,0.2373887240356083,0.2373887240356083,0.2373887240356083,0.4747774480712166,12.166172106824925,67.35905044510386,0.2373887240356083,0.5341246290801187,21.305637982195847,44.21364985163205,20.77151335311573,41.18694362017804,40.474777448071215,40.474777448071215,40.474777448071215,43.97626112759644,39.22848664688428,39.16913946587537,36.32047477744807,6.172106824925816,44.21364985163205,44.21364985163205,2.492581602373887,18.991097922848667,1.7210682492581602,44.27299703264095,45.875370919881306,45.875370919881306,50.20771513353116,64.39169139465875,62.7299703264095,64.33234421364985,62.6706231454006,64.27299703264096,62.61127596439169,67.35905044510386,64.21364985163206,64.09495548961425,62.55192878338279,63.97626112759644,62.49258160237389,12.640949554896142,44.86646884272997,63.85756676557863,62.848664688427306,63.798219584569736,62.789317507418396,63.67952522255192,23.857566765578635,62.37388724035608,63.560830860534125,62.43323442136498,63.50148367952523,42.8486646884273,42.9080118694362,65.93471810089021,41.78041543026706,41.78041543026706,32.58160237388724,32.58160237388724,9.970326409495549,9.970326409495549,7.3590504451038585,12.640949554896142,7.3590504451038585,62.37388724035608,63.560830860534125,44.98516320474778,42.9080118694362,21.72106824925816,23.857566765578635,64.03560830860535,63.91691394658754,36.32047477744807,41.18694362017804,5.697329376854599,71.81008902077151,32.93768545994065	0,0,1,0,0,0,2,0,0,0,0,0,0,1,1,1,0,0,1,3,1,1,0,0,0,0,0,0,1,1,4,6,1,0,0,0,0,0,0,0,0,0,0,0,0,2,0,0,0,0,0,1,0,0,0,0,0,0,1,1,1,0,0,0,1,0,0,0,0,0,0,0,0,2,0,2,2,0,2,0,2,0,0,2,2,0,0,0	0,0,0,0,0,0,0,0,0,0,0,0,0,0,0,0,0,0,0,0,0,0,0,0,0,0,0,0,0,0,0,0,0,0,0,0,0,0,0,0,0,0,0,0,0,0,0,0,0,0,0,0,0,0,0,0,0,0,0,0,0,0,0,0,0,0,0,0,0,0,0,0,0,0,0,0,0,0,0,0,0,0,0,0,0,0,0,0	0,0,0,0,0,0,0,0,0,0,0,0,0,0,0,0,0,0,0,0,0,0,0,0,0,0,0,0,0,0,0,0,0,0,0,0,0,0,0,0,0,0,0,0,0,0,0,0,0,0,0,0,0,0,0,0,0,0,0,0,0,0,0,0,0,0,0,0,0,0,0,0,0,0,0,0,0,0,0,0,0,0,0,0,0,0,0,0
SHOTGUN_SURGERY	65	65,29,36,44.61538461538462,55.38461538461539,1.2413793103448276	1685	14.718100890207717,3.6795252225519293,2.3738872403560833,2.6112759643916914,0.771513353115727,0.4747774480712166,9.614243323442137,21.246290801186944,20.712166172106823,16.083086053412462,13.056379821958458,0.11869436201780414,0.11869436201780414,0.11869436201780414,0.11869436201780414,0.11869436201780414,0.11869436201780414,0.11869436201780414,0.2373887240356083,0.2373887240356083,0.2373887240356083,0.2373887240356083,0.2373887240356083,0.2373887240356083,0.2373887240356083,27.477744807121663,48.367952522255194,38.10089020771513,3.3827893175074184,15.19287833827893,9.13946587537092,17.50741839762611,64.51038575667656,37.0919881305638,17.032640949554896,10.56379821958457,10.56379821958457,23.97626112759644,56.14243323442136,39.347181008902076,46.94362017804154,27.359050445103854,71.81008902077151,8.30860534124629,38.10089020771513,32.047477744807125,7.3590504451038585,17.032640949554896,22.967359050445104,71.81008902077151,47.47774480712167,4.629080118694362,47.95252225519288,71.81008902077151,47.95252225519288,71.81008902077151,19.584569732937684,9.495548961424333,7.3590504451038585,7.3590504451038585,48.78338278931751,24.86646884272997,9.198813056379821,9.73293768545994,0.830860534124629	1,1,0,1,0,0,0,0,0,3,0,0,0,0,0,0,0,0,0,0,0,0,0,0,0,0,3,1,0,3,1,1,2,0,1,0,0,1,0,0,0,2,0,0,2,0,0,2,0,0,2,0,0,0,0,0,0,1,0,0,0,1,1,0,0	0,0,0,0,0,0,0,0,0,0,0,0,0,0,0,0,0,0,0,0,0,0,0,0,0,0,0,0,0,0,0,0,0,0,0,0,0,0,0,0,0,0,0,0,0,0,0,0,0,0,0,0,0,0,0,0,0,0,0,0,0,0,0,0,0	0,0,0,13,0,0,0,0,0,13,0,0,0,0,0,0,0,0,0,0,0,0,0,0,0,0,1,0,0,1,1,0,3,0,0,0,0,1,0,0,0,1,0,0,0,0,0,0,0,0,1,0,0,0,0,0,0,1,0,0,0,1,1,0,0
GOD_CLASS	14	14,6,8,42.857142857142854,57.14285714285714,1.3333333333333333	1685	0.2373887240356083,16.85459940652819,0.11869436201780414,0.2373887240356083,7.774480712166172,4.035608308605341,64.09495548961425,16.55786350148368,64.09495548961425,2.492581602373887,37.92284866468843,23.620178041543028,4.925816023738872,24.86646884272997	1,0,0,0,1,1,1,2,2,0,0,2,0,1	0,0,0,0,0,0,0,0,0,0,0,0,0,0	0,0,0,0,0,1,0,1,0,0,0,1,0,1
NESTED_BLOCK_DEPTH	40	40,14,26,35.0,65.0,1.8571428571428572	1685	14.243323442136498,1.543026706231454,14.243323442136498,12.759643916913946,0.11869436201780414,0.11869436201780414,0.11869436201780414,0.2373887240356083,0.2373887240356083,12.344213649851632,35.074183976261125,3.3827893175074184,1.1275964391691393,1.1275964391691393,5.756676557863502,8.902077151335313,0.4747774480712166,17.744807121661722,35.074183976261125,17.744807121661722,17.98219584569733,0.11869436201780414,56.14243323442136,14.065281899109792,20.77151335311573,6.824925816023739,1.6023738872403561,57.68545994065282,16.85459940652819,20.474777448071215,56.14243323442136,32.10682492581603,32.10682492581603,69.79228486646885,71.98813056379822,53.353115727002965,24.094955489614243,24.86646884272997,41.958456973293764,14.3026706231454	1,0,2,0,0,0,0,0,0,1,1,2,1,1,5,2,1,1,2,1,3,1,1,0,2,2,0,0,0,0,2,0,0,0,0,0,0,4,1,0	0,0,0,0,0,0,0,0,0,0,0,0,0,0,0,0,0,0,0,0,0,0,0,0,0,0,0,0,0,0,0,0,0,0,0,0,0,0,0,0	0,0,0,0,0,0,0,0,0,0,0,1,0,0,1,2,0,0,0,0,1,0,0,0,2,24,0,0,0,0,0,0,0,0,0,0,0,24,1,0
TRADITION_BREAKER	6	6,5,1,83.33333333333334,16.666666666666664,0.2	1685	4.56973293768546,57.74480712166172,57.74480712166172,24.86646884272997,3.620178041543027,3.620178041543027	1,7,8,9,2,2	0,0,0,0,0,0	0,3,3,5,1,1
REFUSED_PARENT_BEQUEST	116	116,33,83,28.448275862068968,71.55172413793103,2.515151515151515	1685	0.11869436201780414,0.11869436201780414,0.11869436201780414,0.11869436201780414,0.11869436201780414,0.11869436201780414,0.11869436201780414,0.11869436201780414,0.11869436201780414,0.11869436201780414,0.11869436201780414,0.11869436201780414,0.11869436201780414,0.2373887240356083,0.2373887240356083,0.2373887240356083,0.2373887240356083,0.2373887240356083,0.2373887240356083,0.2373887240356083,0.2373887240356083,0.2373887240356083,0.2373887240356083,0.2373887240356083,0.2373887240356083,0.2373887240356083,7.893175074183977,4.510385756676557,0.6528189910979229,1.483679525222552,9.13946587537092,9.198813056379821,9.258160237388724,9.317507418397627,9.376854599406528,9.020771513353115,9.080118694362017,3.857566765578635,9.43620178041543,7.774480712166172,9.495548961424333,5.281899109792285,5.222551928783383,5.163204747774481,5.103857566765579,5.044510385756676,5.4005934718100885,5.341246290801187,4.985163204747774,26.290801186943618,26.290801186943618,18.160237388724035,47.002967359050444,12.462908011869436,9.792284866468842,22.31454005934718,22.31454005934718,1.3056379821958457,0.4154302670623145,49.554896142433236,4.213649851632048,5.222551928783383,2.7893175074183976,2.7893175074183976,2.7893175074183976,2.7893175074183976,2.7893175074183976,2.7893175074183976,37.98219584569733,39.58456973293769,37.68545994065282,32.87833827893175,32.93768545994065,39.58456973293769,30.02967359050445,58.63501483679525,64.09495548961425,63.97626112759644,25.816023738872403,54.95548961424333,9.970326409495549,20.474777448071215,20.474777448071215,20.474777448071215,66.82492581602374,66.82492581602374,24.094955489614243,24.094955489614243,20.474777448071215,20.474777448071215,64.09495548961425,63.97626112759644,13.94658753709199,2.492581602373887,14.3026706231454,14.3026706231454,29.258160237388726,0.35608308605341243,0.35608308605341243,6.053412462908011,6.053412462908011,6.528189910979229,7.596439169139465,24.86646884272997,9.198813056379821,14.3026706231454,38.69436201780416,5.697329376854599,6.350148367952523,6.350148367952523,6.350148367952523,6.350148367952523,6.350148367952523,6.350148367952523,13.234421364985163,0.05934718100890207	0,0,0,0,0,0,0,0,0,0,0,0,0,0,0,0,0,0,0,0,0,0,0,0,0,0,1,0,1,0,0,0,0,0,0,0,0,0,0,1,0,0,0,0,0,0,0,0,0,1,1,0,5,0,1,1,1,0,0,7,1,0,0,0,0,0,0,0,1,1,1,1,1,1,0,1,1,1,0,5,0,1,1,0,0,0,0,0,2,2,2,2,0,0,0,0,0,0,0,0,0,0,0,1,1,0,0,0,0,0,0,0,0,0,1,0	0,0,0,0,0,0,0,0,0,0,0,0,0,0,0,0,0,0,0,0,0,0,0,0,0,0,0,0,0,0,0,0,0,0,0,0,0,0,0,0,0,0,0,0,0,0,0,0,0,0,0,0,0,0,0,0,0,0,0,0,0,0,0,0,0,0,0,0,0,0,0,0,0,0,0,0,0,0,0,0,0,0,0,0,0,0,0,0,0,0,0,0,0,0,0,0,0,0,0,0,0,0,0,0,0,0,0,0,0,0,0,0,0,0,0,0	0,0,0,0,0,0,0,0,0,0,0,0,0,0,0,0,0,0,0,0,0,0,0,0,0,0,0,0,0,0,0,0,0,0,0,0,0,0,0,0,0,0,0,0,0,0,0,0,0,0,0,0,4,0,0,0,0,0,0,4,1,0,0,0,0,0,0,0,1,1,1,1,1,1,0,1,0,0,0,3,0,0,0,0,0,0,0,0,0,0,0,0,0,0,0,0,0,0,0,0,0,0,0,1,1,0,0,0,0,0,0,0,0,0,1,0
COMPLEX_METHOD	6	6,4,2,66.66666666666666,33.33333333333333,0.5	1685	0.11869436201780414,15.905044510385757,58.10089020771514,32.10682492581603,56.14243323442136,16.083086053412462	0,0,2,0,4,0	0,0,0,0,0,0	0,0,1,0,2,0
MIDDLE_MAN	18	18,11,7,61.111111111111114,38.88888888888889,0.6363636363636364	1685	0.11869436201780414,23.204747774480712,15.43026706231454,35.60830860534125,23.14540059347181,24.094955489614243,9.495548961424333,18.991097922848667,42.9080118694362,42.9080118694362,14.3026706231454,14.3026706231454,14.3026706231454,19.643916913946587,19.643916913946587,46.468842729970326,46.468842729970326,18.93175074183976	0,0,1,11,0,1,5,0,1,2,0,0,0,4,4,0,0,2	0,0,0,0,0,0,0,0,0,0,0,0,0,0,0,0,0,0	0,0,0,5,0,1,2,0,0,0,0,0,0,2,2,0,0,1
COMPLEX_CONDITION	8	8,2,6,25.0,75.0,3.0	1685	19.881305637982198,0.17804154302670622,0.2373887240356083,0.11869436201780414,0.2967359050445104,38.27893175074184,0.4747774480712166,3.4421364985163203	0,0,0,0,0,0,0,0	0,0,0,0,0,0,0,0	0,0,0,0,0,0,0,0
BRAIN_METHOD	1	1,1,0,100.0,0.0,0.0	1685	32.10682492581603	0	0	0
