28,19,9,67.85714285714286,32.142857142857146,0.47368421052631576
FEATURE_ENVY	7	7,5,2,71.42857142857143,28.57142857142857,0.4	303	8.58085808580858,6.9306930693069315,78.87788778877888,29.7029702970297,29.7029702970297,23.762376237623762,12.211221122112212	2,1,0,0,0,0,0	1,0,0,0,0,0,0	1,0,0,0,0,0,0
DEAD_CODE	15	15,12,3,80.0,20.0,0.25	303	1.9801980198019802,9.24092409240924,1.65016501650165,64.68646864686468,82.83828382838284,32.01320132013201,41.254125412541256,67.98679867986799,67.98679867986799,67.98679867986799,64.68646864686468,16.17161716171617,12.211221122112212,12.211221122112212,12.211221122112212	0,0,1,1,0,0,1,0,0,0,2,0,0,0,0	0,0,0,0,0,0,0,0,0,0,0,0,0,0,0	0,0,0,0,0,0,1,0,0,0,0,0,0,0,0
MIDDLE_MAN	2	2,1,1,50.0,50.0,1.0	303	0.9900990099009901,21.45214521452145	1,0	0,0	0,0
DATA_CLASS	4	4,1,3,25.0,75.0,3.0	303	0.6600660066006601,33.663366336633665,33.663366336633665,21.45214521452145	1,0,0,0	0,1,1,0	0,0,0,0
