602,282,320,46.84385382059801,53.156146179402,1.1347517730496455
DATA_CLASS	77	77,38,39,49.35064935064935,50.649350649350644,1.0263157894736843	1014	0.8875739644970414,0.19723865877712032,0.2958579881656805,0.39447731755424065,0.39447731755424065,0.2958579881656805,0.39447731755424065,0.2958579881656805,0.19723865877712032,0.19723865877712032,0.39447731755424065,9.072978303747535,1.4792899408284024,1.3806706114398422,1.3806706114398422,51.08481262327417,3.057199211045365,3.057199211045365,3.057199211045365,13.116370808678502,64.20118343195266,13.214990138067062,13.116370808678502,24.358974358974358,24.358974358974358,38.46153846153847,33.72781065088758,5.226824457593689,5.226824457593689,97.33727810650888,30.67061143984221,30.67061143984221,15.483234714003945,35.8974358974359,1.3806706114398422,97.33727810650888,5.621301775147929,14.201183431952662,27.416173570019726,4.536489151873767,25.542406311637084,27.416173570019726,4.536489151873767,30.276134122287967,30.57199211045365,6.31163708086785,6.31163708086785,18.244575936883628,25.04930966469428,35.30571992110454,0.39447731755424065,35.30571992110454,13.708086785009863,8.481262327416173,1.282051282051282,51.08481262327417,0.591715976331361,8.481262327416173,5.818540433925049,6.903353057199212,6.903353057199212,6.903353057199212,6.903353057199212,6.903353057199212,6.903353057199212,0.2958579881656805,5.818540433925049,1.282051282051282,26.429980276134124,26.429980276134124,26.429980276134124,18.244575936883628,6.903353057199212,7.297830374753452,6.903353057199212,6.903353057199212,28.303747534516766	0,1,0,0,0,0,0,0,0,0,0,1,0,1,1,2,0,0,0,0,0,0,0,0,0,0,0,0,0,0,0,0,0,2,1,0,1,2,1,1,0,2,2,0,0,0,0,0,1,3,1,5,0,0,1,2,0,2,0,0,0,0,0,0,0,0,0,0,0,0,0,0,0,1,0,0,0	0,0,1,1,1,1,1,1,0,0,0,0,0,0,0,1,0,0,0,0,0,0,0,0,0,0,0,0,0,0,0,0,0,1,0,0,0,0,0,0,0,0,0,0,0,0,0,0,0,0,0,0,0,0,0,0,0,1,0,0,0,0,0,0,0,0,0,0,0,0,0,0,0,0,0,0,0	0,0,0,0,0,0,0,0,0,0,0,0,0,1,1,1,0,0,0,0,0,0,0,0,0,0,0,0,0,0,0,0,0,1,0,0,0,1,0,0,0,0,0,0,0,0,0,0,0,0,0,0,0,0,1,1,0,1,0,0,0,0,0,0,0,0,0,0,0,0,0,0,0,1,0,0,0
DEAD_CODE	105	105,36,69,34.285714285714285,65.71428571428571,1.9166666666666667	1014	0.19723865877712032,0.19723865877712032,0.19723865877712032,0.19723865877712032,0.19723865877712032,0.19723865877712032,0.19723865877712032,0.19723865877712032,0.19723865877712032,0.19723865877712032,0.19723865877712032,0.19723865877712032,0.19723865877712032,0.19723865877712032,0.19723865877712032,0.19723865877712032,0.2958579881656805,0.2958579881656805,0.2958579881656805,0.2958579881656805,0.2958579881656805,0.19723865877712032,0.19723865877712032,0.39447731755424065,40.138067061143985,0.4930966469428008,28.106508875739642,28.106508875739642,0.2958579881656805,0.2958579881656805,1.183431952662722,0.4930966469428008,7.790927021696252,0.39447731755424065,39.8422090729783,40.138067061143985,40.138067061143985,10.355029585798817,6.607495069033531,6.607495069033531,6.607495069033531,46.15384615384615,3.5502958579881656,3.5502958579881656,3.9447731755424065,7.889546351084813,4.339250493096647,7.889546351084813,7.889546351084813,67.65285996055226,29.68441814595661,97.0414201183432,10.355029585798817,69.42800788954635,73.96449704142012,3.648915187376726,3.648915187376726,38.46153846153847,38.46153846153847,0.39447731755424065,27.810650887573964,2.7613412228796843,34.22090729783038,25.83826429980276,30.67061143984221,38.46153846153847,25.345167652859963,25.345167652859963,24.358974358974358,26.13412228796844,28.303747534516766,0.19723865877712032,0.2958579881656805,0.2958579881656805,20.51282051282051,17.75147928994083,23.57001972386588,23.57001972386588,26.13412228796844,27.021696252465482,39.94082840236686,39.94082840236686,98.71794871794873,0.39447731755424065,21.499013806706113,21.499013806706113,20.51282051282051,1.282051282051282,8.481262327416173,17.75147928994083,0.6903353057199211,0.6903353057199211,5.818540433925049,1.282051282051282,37.96844181459566,43.786982248520715,43.786982248520715,26.429980276134124,1.282051282051282,1.282051282051282,28.205128205128204,31.26232741617357,100.0,23.57001972386588,22.583826429980274	0,1,1,0,1,1,1,1,1,0,1,1,1,0,0,0,0,0,0,0,0,0,0,0,1,0,1,1,1,0,1,1,0,1,1,0,0,1,0,1,0,1,0,0,1,0,0,1,1,1,1,0,2,0,3,0,0,0,2,0,0,0,0,0,1,0,0,0,0,0,0,0,1,1,1,2,0,0,0,1,0,0,2,1,0,0,2,1,0,3,0,0,0,1,0,0,0,0,0,0,0,0,0,0,0	0,0,0,0,0,0,0,0,0,0,0,0,0,0,0,0,1,1,1,1,1,0,0,0,0,0,0,0,0,0,0,0,0,0,0,0,0,0,0,0,0,0,0,0,0,0,0,0,0,0,0,0,2,0,0,0,0,0,0,0,0,0,0,0,0,0,0,0,0,0,0,0,0,0,0,0,0,0,0,0,0,0,0,0,0,0,0,0,0,0,0,0,0,0,0,0,0,0,0,0,0,0,0,0,0	0,0,0,0,0,0,0,0,0,0,0,0,0,0,0,0,0,0,0,0,0,0,0,0,0,0,0,0,0,0,0,0,0,0,0,0,0,0,0,0,0,1,0,0,0,0,0,0,0,0,0,0,1,0,1,0,0,0,1,0,0,0,0,0,1,0,0,0,0,0,0,0,0,0,0,0,0,0,0,1,0,0,2,0,0,0,0,0,0,0,0,0,0,0,0,0,0,0,0,0,0,0,0,0,0
NESTED_BLOCK_DEPTH	128	128,62,66,48.4375,51.5625,1.064516129032258	1014	0.19723865877712032,0.19723865877712032,0.19723865877712032,0.19723865877712032,0.19723865877712032,0.2958579881656805,0.2958579881656805,0.39447731755424065,0.2958579881656805,0.2958579881656805,0.39447731755424065,0.39447731755424065,0.39447731755424065,0.4930966469428008,0.4930966469428008,0.4930966469428008,0.4930966469428008,0.4930966469428008,5.226824457593689,1.3806706114398422,11.045364891518737,11.045364891518737,11.045364891518737,2.0710059171597637,16.173570019723865,2.0710059171597637,42.209072978303745,31.558185404339252,0.6903353057199211,33.33333333333333,33.33333333333333,2.1696252465483234,2.1696252465483234,16.370808678500985,47.14003944773176,47.14003944773176,14.694280078895464,9.664694280078894,0.2958579881656805,20.808678500986193,7.889546351084813,47.53451676528599,7.199211045364892,62.42603550295858,61.1439842209073,7.889546351084813,0.39447731755424065,0.19723865877712032,0.19723865877712032,15.483234714003945,10.256410256410255,30.67061143984221,68.83629191321499,15.483234714003945,4.536489151873767,37.278106508875744,56.90335305719921,3.8461538461538463,27.810650887573964,27.810650887573964,38.46153846153847,28.402366863905325,27.810650887573964,45.66074950690335,17.159763313609467,39.64497041420118,3.8461538461538463,0.19723865877712032,25.83826429980276,25.83826429980276,25.83826429980276,25.83826429980276,25.83826429980276,25.83826429980276,25.83826429980276,25.83826429980276,25.83826429980276,25.83826429980276,25.83826429980276,25.83826429980276,25.7396449704142,25.542406311637084,27.416173570019726,30.67061143984221,30.67061143984221,30.67061143984221,32.24852071005917,23.668639053254438,0.8875739644970414,0.6903353057199211,44.47731755424063,0.19723865877712032,23.57001972386588,23.57001972386588,85.10848126232742,27.416173570019726,97.33727810650888,1.4792899408284024,38.46153846153847,38.46153846153847,38.46153846153847,9.960552268244575,62.327416173570015,49.0138067061144,27.810650887573964,27.810650887573964,97.33727810650888,51.28205128205128,40.828402366863905,40.828402366863905,40.828402366863905,1.282051282051282,69.92110453648915,1.282051282051282,38.46153846153847,38.46153846153847,38.46153846153847,38.46153846153847,38.46153846153847,38.46153846153847,38.46153846153847,38.46153846153847,38.46153846153847,21.400394477317555,28.303747534516766,28.303747534516766,82.9388560157791,69.92110453648915	1,1,1,1,1,0,0,1,0,0,0,0,0,0,0,0,0,0,0,1,1,0,1,1,1,1,3,1,1,2,3,2,3,0,1,1,1,1,0,1,0,2,1,1,1,1,0,0,0,0,1,0,1,0,1,2,3,0,0,0,1,0,0,0,3,0,0,1,0,0,0,0,0,0,0,0,0,0,0,0,0,0,1,0,0,0,3,0,1,1,1,1,2,0,0,2,3,1,2,2,2,1,2,2,0,0,5,0,3,0,0,0,0,0,2,2,2,2,2,2,2,2,2,0,0,0,2,0	0,0,0,0,0,1,1,1,1,1,0,0,0,0,0,0,0,0,0,0,0,0,0,0,0,0,0,0,0,0,0,0,0,0,0,0,0,0,0,0,0,1,0,0,0,0,0,0,0,0,0,0,0,0,0,1,2,0,0,0,0,0,0,0,0,0,0,0,0,0,0,0,0,0,0,0,0,0,0,0,0,0,0,0,0,0,0,0,0,0,0,0,0,0,0,0,0,0,0,0,0,0,0,0,0,0,0,0,0,0,0,0,0,0,0,0,0,0,0,0,0,0,0,0,0,0,0,0	0,0,0,0,0,0,0,1,0,0,0,0,0,0,0,0,0,0,0,0,0,0,0,0,0,0,2,3,0,0,0,0,0,0,0,0,0,1,0,1,0,1,6,1,1,0,0,0,0,0,1,0,0,0,1,1,1,0,0,0,1,0,0,0,1,0,0,0,0,0,0,0,0,0,0,0,0,0,0,0,0,0,0,0,0,0,1,0,0,0,0,0,1,0,0,0,0,0,1,1,1,0,1,1,0,0,0,0,6,0,0,0,0,0,1,1,1,1,1,1,1,1,1,0,0,0,1,0
FEATURE_ENVY	156	156,84,72,53.84615384615385,46.15384615384615,0.8571428571428571	1014	0.19723865877712032,0.19723865877712032,0.2958579881656805,0.2958579881656805,0.2958579881656805,0.2958579881656805,0.2958579881656805,0.2958579881656805,0.2958579881656805,0.39447731755424065,0.39447731755424065,0.39447731755424065,0.39447731755424065,0.39447731755424065,0.4930966469428008,0.7889546351084813,0.39447731755424065,16.173570019723865,4.142011834319527,47.73175542406312,31.558185404339252,30.276134122287967,5.424063116370808,43.49112426035503,0.8875739644970414,47.73175542406312,4.339250493096647,4.339250493096647,4.339250493096647,68.83629191321499,4.339250493096647,38.46153846153847,7.889546351084813,3.2544378698224854,52.95857988165681,21.893491124260358,5.818540433925049,0.19723865877712032,30.67061143984221,30.67061143984221,30.67061143984221,30.67061143984221,8.185404339250493,38.46153846153847,38.46153846153847,28.303747534516766,1.7751479289940828,38.46153846153847,38.46153846153847,34.22090729783038,28.402366863905325,28.303747534516766,28.303747534516766,39.64497041420118,2.7613412228796843,2.564102564102564,25.83826429980276,25.83826429980276,25.83826429980276,25.83826429980276,25.83826429980276,25.83826429980276,25.542406311637084,1.5779092702169626,1.5779092702169626,26.13412228796844,5.818540433925049,26.13412228796844,28.698224852071007,28.698224852071007,28.698224852071007,23.767258382642996,0.19723865877712032,0.19723865877712032,7.199211045364892,7.199211045364892,0.19723865877712032,0.19723865877712032,0.39447731755424065,0.39447731755424065,38.06706114398422,0.19723865877712032,0.19723865877712032,28.303747534516766,28.303747534516766,22.978303747534518,0.39447731755424065,1.183431952662722,10.552268244575936,5.522682445759369,6.11439842209073,0.6903353057199211,28.500986193293887,0.591715976331361,0.6903353057199211,0.19723865877712032,6.607495069033531,6.508875739644971,6.31163708086785,8.579881656804734,8.579881656804734,0.2958579881656805,16.469428007889547,26.13412228796844,16.56804733727811,27.416173570019726,12.91913214990138,11.637080867850099,10.355029585798817,10.355029585798817,8.481262327416173,17.554240631163708,8.481262327416173,8.481262327416173,8.481262327416173,38.46153846153847,8.481262327416173,3.155818540433925,8.481262327416173,8.481262327416173,8.481262327416173,6.903353057199212,16.56804733727811,16.56804733727811,16.370808678500985,0.2958579881656805,4.930966469428008,29.88165680473373,19.42800788954635,4.437869822485207,23.668639053254438,21.893491124260358,43.786982248520715,43.786982248520715,6.903353057199212,40.828402366863905,40.828402366863905,40.828402366863905,32.149901380670606,32.149901380670606,32.149901380670606,32.149901380670606,32.149901380670606,26.429980276134124,1.282051282051282,38.46153846153847,38.46153846153847,38.46153846153847,38.46153846153847,38.46153846153847,6.903353057199212,52.16962524654832,14.299802761341224,28.303747534516766,28.303747534516766,28.303747534516766	1,1,0,0,0,0,0,0,0,0,0,0,0,0,0,1,1,1,1,2,1,3,2,1,0,3,1,1,1,1,1,1,1,0,0,0,1,1,1,1,2,2,3,0,0,0,0,0,2,0,0,0,0,0,0,0,0,0,0,0,0,0,0,0,0,1,3,0,0,0,0,0,0,0,0,0,0,1,0,0,0,0,0,0,0,0,1,1,1,0,0,1,2,0,0,0,0,0,0,0,0,0,0,2,1,0,0,0,0,0,0,0,0,0,0,2,0,1,0,0,0,0,0,0,0,1,0,0,0,0,0,2,0,0,0,0,0,0,0,0,0,0,0,0,0,2,2,2,2,2,0,4,0,0,0,0	0,0,1,1,1,1,1,1,1,0,0,0,0,0,0,0,0,0,0,0,0,0,0,0,0,0,0,0,0,0,0,0,0,0,0,0,0,0,0,0,0,0,0,0,0,0,0,0,0,0,0,0,0,0,0,0,0,0,0,0,0,0,0,0,0,0,0,0,0,0,0,0,0,0,0,0,0,0,0,0,0,0,0,0,0,0,0,0,0,0,0,0,2,0,0,0,0,0,0,0,0,0,0,0,0,0,0,0,0,0,0,0,0,0,0,0,0,0,0,0,0,0,0,0,0,0,0,0,0,0,0,0,0,0,0,0,0,0,0,0,0,0,0,0,0,0,0,0,0,0,0,0,0,0,0,0	0,0,0,0,0,0,0,0,0,0,0,0,0,0,0,0,0,0,0,0,3,1,1,1,0,0,0,0,0,1,0,0,0,0,0,0,0,0,0,0,0,0,1,0,0,0,0,0,0,0,0,0,0,0,0,0,0,0,0,0,0,0,0,0,0,0,1,0,0,0,0,0,0,0,0,0,0,0,0,0,0,0,0,0,0,0,0,0,0,0,0,0,1,0,0,0,0,0,0,0,0,0,0,0,0,0,0,0,0,0,0,0,0,0,0,1,0,1,0,0,0,0,0,0,0,0,0,0,0,0,0,1,0,0,0,0,0,0,0,0,0,0,0,0,0,1,1,1,1,1,0,2,0,0,0,0
GOD_CLASS	20	20,9,11,45.0,55.00000000000001,1.2222222222222223	1014	0.19723865877712032,0.2958579881656805,0.2958579881656805,0.2958579881656805,0.19723865877712032,0.4930966469428008,20.611439842209073,60.15779092702169,68.83629191321499,27.810650887573964,25.83826429980276,24.358974358974358,70.41420118343196,17.159763313609467,38.46153846153847,8.481262327416173,21.400394477317555,39.94082840236686,28.303747534516766,69.92110453648915	1,0,0,0,0,0,1,0,2,0,0,0,3,1,2,0,0,0,0,2	0,1,1,1,0,0,0,0,0,0,0,0,0,0,0,0,0,0,0,0	0,0,0,0,0,0,0,0,1,0,0,0,1,0,1,0,0,0,0,1
REFUSED_PARENT_BEQUEST	6	6,2,4,33.33333333333333,66.66666666666666,2.0	1014	0.19723865877712032,0.2958579881656805,0.4930966469428008,68.83629191321499,25.83826429980276,38.46153846153847	1,0,0,2,0,2	0,1,0,0,0,0	0,0,0,1,0,1
COMPLEX_METHOD	37	37,17,20,45.94594594594595,54.054054054054056,1.1764705882352942	1014	0.19723865877712032,0.2958579881656805,0.19723865877712032,0.39447731755424065,0.39447731755424065,0.4930966469428008,11.045364891518737,31.558185404339252,0.6903353057199211,33.33333333333333,33.33333333333333,47.14003944773176,47.14003944773176,17.06114398422091,11.93293885601578,7.889546351084813,0.19723865877712032,15.483234714003945,5.818540433925049,38.46153846153847,14.891518737672586,27.810650887573964,25.83826429980276,25.83826429980276,25.83826429980276,23.668639053254438,13.708086785009863,42.998027613412226,38.46153846153847,42.998027613412226,40.828402366863905,1.282051282051282,32.149901380670606,26.429980276134124,38.46153846153847,38.46153846153847,38.46153846153847	1,0,0,0,0,0,0,1,1,2,3,1,1,1,1,0,0,0,1,0,3,0,0,0,0,0,0,3,3,5,0,0,0,0,2,2,4	0,1,0,0,0,0,0,0,0,0,0,0,0,0,0,0,0,0,0,0,1,0,0,0,0,0,0,0,0,0,0,0,0,0,0,0,0	0,0,0,0,0,0,0,3,0,0,0,0,0,0,0,0,0,0,0,0,1,0,0,0,0,0,0,0,1,0,0,0,0,0,1,1,1
SHOTGUN_SURGERY	28	28,21,7,75.0,25.0,0.3333333333333333	1014	0.2958579881656805,0.2958579881656805,0.2958579881656805,0.2958579881656805,0.19723865877712032,0.4930966469428008,97.33727810650888,33.72781065088758,27.810650887573964,27.810650887573964,27.810650887573964,1.5779092702169626,27.514792899408285,27.810650887573964,27.810650887573964,27.810650887573964,16.56804733727811,13.708086785009863,28.303747534516766,39.94082840236686,97.0414201183432,28.303747534516766,28.303747534516766,60.256410256410255,97.33727810650888,97.33727810650888,26.13412228796844,58.38264299802761	0,0,1,1,0,0,0,0,2,3,3,1,0,4,0,5,0,0,0,0,0,0,0,0,0,0,0,2	1,1,1,1,0,0,0,0,0,0,0,0,0,0,0,0,0,0,0,0,0,0,0,0,0,0,0,0	0,0,0,0,0,0,0,0,0,0,1,0,0,1,0,0,0,0,0,0,0,0,0,0,0,0,0,1
LARGE_CLASS	3	3,0,3,0.0,100.0,Infinity	1014	0.2958579881656805,11.439842209072978,25.14792899408284	0,2,3	1,0,0	0,1,1
COMPLEX_CONDITION	22	22,6,16,27.27272727272727,72.72727272727273,2.6666666666666665	1014	0.2958579881656805,0.19723865877712032,0.2958579881656805,30.17751479289941,2.465483234714004,16.370808678500985,14.694280078895464,0.9861932938856016,12.22879684418146,58.18540433925049,15.384615384615385,50.09861932938856,86.3905325443787,60.946745562130175,25.542406311637084,12.32741617357002,1.282051282051282,37.573964497041416,25.542406311637084,68.73767258382642,1.282051282051282,7.297830374753452	1,0,0,0,0,0,0,0,0,2,0,0,3,3,0,0,0,1,0,1,0,1	1,0,0,0,0,0,0,0,0,0,0,0,1,1,0,0,0,0,0,0,0,0	0,0,0,0,0,0,0,0,0,2,0,0,2,2,0,0,0,1,0,0,0,1
BRAIN_METHOD	8	8,1,7,12.5,87.5,7.0	1014	0.2958579881656805,11.242603550295858,11.242603550295858,47.14003944773176,0.19723865877712032,15.483234714003945,1.4792899408284024,40.138067061143985	0,2,3,1,0,0,1,0	1,0,0,0,0,0,0,0	0,0,0,0,0,0,0,0
LONG_PARAM	4	4,0,4,0.0,100.0,Infinity	1014	0.2958579881656805,6.31163708086785,0.9861932938856016,8.284023668639055	0,0,0,0	0,0,0,0	0,0,0,0
MIDDLE_MAN	5	5,3,2,60.0,40.0,0.6666666666666666	1014	27.514792899408285,6.31163708086785,6.31163708086785,23.471400394477318,23.471400394477318	2,0,0,0,0	1,0,0,0,0	1,0,0,0,0
CYCLE	2	2,2,0,100.0,0.0,0.0	1014	37.96844181459566,37.96844181459566	0,0	0,0	0,0
LONG_METHOD	1	1,1,0,100.0,0.0,0.0	1014	1.282051282051282	0	0	0
