596,329,267,55.20134228187919,44.79865771812081,0.8115501519756839
DEAD_CODE	86	86,36,50,41.86046511627907,58.139534883720934,1.3888888888888888	855	7.368421052631578,3.274853801169591,4.2105263157894735,8.187134502923977,3.7426900584795324,5.263157894736842,1.7543859649122806,7.017543859649122,7.1345029239766085,9.239766081871345,9.239766081871345,5.964912280701754,0.8187134502923977,0.46783625730994155,28.538011695906434,63.04093567251462,9.473684210526317,40.58479532163743,40.58479532163743,47.368421052631575,47.368421052631575,44.09356725146199,44.09356725146199,44.09356725146199,50.175438596491226,8.070175438596491,0.5847953216374269,75.55555555555556,45.02923976608187,45.02923976608187,45.02923976608187,94.03508771929825,58.71345029239766,60.35087719298245,60.35087719298245,60.35087719298245,60.35087719298245,93.91812865497076,93.91812865497076,93.91812865497076,93.33333333333333,89.70760233918129,89.70760233918129,32.514619883040936,0.7017543859649122,32.046783625730995,32.046783625730995,32.046783625730995,49.35672514619883,93.33333333333333,0.23391812865497078,0.46783625730994155,14.619883040935672,14.619883040935672,4.3274853801169595,63.04093567251462,0.7017543859649122,22.573099415204677,22.573099415204677,12.280701754385964,12.280701754385964,12.280701754385964,77.30994152046785,24.09356725146199,2.807017543859649,4.3274853801169595,4.3274853801169595,4.3274853801169595,76.7251461988304,76.7251461988304,49.824561403508774,77.77777777777779,3.7426900584795324,18.83040935672515,32.514619883040936,32.514619883040936,13.91812865497076,3.7426900584795324,3.7426900584795324,1.8713450292397662,0.23391812865497078,18.83040935672515,41.98830409356725,93.33333333333333,14.853801169590644,9.824561403508772	1,1,1,0,1,0,0,1,1,1,1,0,0,1,1,2,0,0,0,0,0,0,0,0,0,0,0,0,1,1,1,0,0,0,0,0,0,0,0,0,0,0,0,0,0,0,0,0,0,1,0,1,0,0,0,3,0,0,0,0,0,0,0,0,0,0,0,0,1,1,0,0,0,0,0,0,0,0,0,0,0,0,0,2,0,0	0,0,0,0,0,0,0,0,0,0,0,0,0,0,0,0,0,0,0,0,0,0,0,0,0,0,0,0,0,0,0,0,0,0,0,0,0,0,0,0,0,0,0,0,0,0,0,0,0,0,0,0,0,0,0,0,0,0,0,0,0,0,0,0,0,0,0,0,0,0,0,0,0,0,0,0,0,0,0,0,0,0,0,0,0,0	0,0,0,0,0,0,0,0,0,0,0,0,0,0,0,3,0,0,0,0,0,0,0,0,0,0,0,0,1,1,1,0,0,0,0,0,0,0,0,0,0,0,0,0,0,0,0,0,0,0,0,0,0,0,0,3,0,0,0,0,0,0,0,0,0,0,0,0,0,0,0,0,0,0,0,0,0,0,0,0,0,0,0,0,0,0
BRAIN_METHOD	10	10,3,7,30.0,70.0,2.3333333333333335	855	0.46783625730994155,12.865497076023392,17.543859649122805,9.5906432748538,65.6140350877193,99.53216374269006,5.614035087719298,5.614035087719298,39.64912280701755,99.53216374269006	0,2,1,2,6,9,2,3,0,10	0,0,0,0,0,0,0,0,0,0	0,39,0,1,39,39,0,0,0,39
COMPLEX_METHOD	75	75,51,24,68.0,32.0,0.47058823529411764	855	0.46783625730994155,15.43859649122807,3.0409356725146197,99.53216374269006,15.43859649122807,7.017543859649122,15.43859649122807,1.6374269005847955,0.5847953216374269,23.742690058479532,34.73684210526316,7.1345029239766085,40.70175438596491,99.53216374269006,34.73684210526316,49.941520467836256,89.70760233918129,93.33333333333333,93.33333333333333,93.33333333333333,93.33333333333333,93.33333333333333,93.33333333333333,93.33333333333333,93.33333333333333,93.33333333333333,93.33333333333333,93.33333333333333,93.33333333333333,93.33333333333333,93.33333333333333,93.33333333333333,93.33333333333333,93.33333333333333,93.33333333333333,93.33333333333333,93.33333333333333,93.33333333333333,93.33333333333333,93.33333333333333,93.33333333333333,93.33333333333333,93.33333333333333,93.33333333333333,93.33333333333333,93.33333333333333,93.33333333333333,93.33333333333333,93.33333333333333,93.33333333333333,93.33333333333333,93.33333333333333,93.33333333333333,59.06432748538012,27.719298245614034,34.385964912280706,34.385964912280706,99.53216374269006,5.614035087719298,20.116959064327485,39.76608187134503,31.11111111111111,5.614035087719298,0.7017543859649122,7.1345029239766085,32.046783625730995,49.824561403508774,31.11111111111111,0.8187134502923977,49.824561403508774,20.116959064327485,3.7426900584795324,51.461988304093566,34.619883040935676,99.53216374269006	0,3,1,3,4,0,6,0,0,0,4,0,2,4,5,0,0,0,0,0,0,0,0,0,0,0,0,0,0,0,0,0,0,0,0,0,0,0,0,0,0,0,0,0,0,0,0,0,0,0,0,0,0,0,0,0,0,6,2,1,0,2,3,1,2,0,1,3,0,2,2,0,0,1,9	0,0,0,0,0,0,0,0,0,0,0,0,0,0,0,0,0,0,0,0,0,0,0,0,0,0,0,0,0,0,0,0,0,0,0,0,0,0,0,0,0,0,0,0,0,0,0,0,0,0,0,0,0,0,0,0,0,0,0,0,0,0,0,0,0,0,0,0,0,0,0,0,0,0,0	0,0,0,0,0,0,0,0,0,0,1,0,1,0,1,0,0,0,0,0,0,0,0,0,0,0,0,0,0,0,0,0,0,0,0,0,0,0,0,0,0,0,0,0,0,0,0,0,0,0,0,0,0,0,0,0,0,0,0,0,0,0,0,0,1,0,0,0,0,0,0,0,0,1,0
GOD_CLASS	13	13,10,3,76.92307692307693,23.076923076923077,0.3	855	0.46783625730994155,99.88304093567251,3.976608187134503,39.76608187134503,99.53216374269006,40.70175438596491,39.76608187134503,76.95906432748538,45.146198830409354,99.88304093567251,14.853801169590644,99.53216374269006,0.23391812865497078	0,1,1,1,3,0,2,8,0,2,0,4,0	0,0,0,0,0,0,0,0,0,0,0,0,0	0,0,0,0,1,0,0,4,0,0,0,1,0
NESTED_BLOCK_DEPTH	88	88,51,37,57.95454545454546,42.04545454545455,0.7254901960784313	855	0.46783625730994155,0.46783625730994155,0.5847953216374269,1.7543859649122806,74.50292397660819,99.53216374269006,9.824561403508772,99.53216374269006,5.614035087719298,13.567251461988302,9.824561403508772,12.397660818713451,6.783625730994151,12.280701754385964,99.88304093567251,0.5847953216374269,34.152046783625735,0.46783625730994155,12.865497076023392,23.742690058479532,68.0701754385965,34.73684210526316,65.49707602339181,7.1345029239766085,48.53801169590643,99.88304093567251,40.0,68.0701754385965,99.53216374269006,13.801169590643275,98.24561403508771,20.701754385964914,92.7485380116959,75.55555555555556,97.07602339181285,1.4035087719298245,98.24561403508771,10.175438596491228,34.73684210526316,99.88304093567251,92.7485380116959,60.35087719298245,74.50292397660819,70.29239766081872,97.07602339181285,65.49707602339181,74.50292397660819,25.146198830409354,0.46783625730994155,22.573099415204677,5.614035087719298,22.573099415204677,21.871345029239766,6.1988304093567255,39.76608187134503,68.0701754385965,0.46783625730994155,92.7485380116959,99.53216374269006,5.614035087719298,0.7017543859649122,7.1345029239766085,99.88304093567251,49.824561403508774,33.099415204678365,22.573099415204677,14.502923976608187,98.24561403508771,54.853801169590646,68.0701754385965,49.824561403508774,5.380116959064328,92.7485380116959,92.7485380116959,32.514619883040936,21.052631578947366,22.573099415204677,92.7485380116959,99.88304093567251,51.461988304093566,1.8713450292397662,44.32748538011696,34.619883040935676,54.853801169590646,56.84210526315789,21.871345029239766,99.53216374269006,33.099415204678365	0,0,1,0,3,4,1,5,1,1,2,1,1,1,2,0,0,1,1,0,3,4,1,0,0,1,1,4,7,1,2,1,1,0,1,0,3,1,5,3,1,0,4,1,2,2,6,0,1,2,2,3,2,1,0,6,0,3,10,3,1,2,5,1,1,0,0,5,4,9,2,0,2,2,0,2,5,10,2,0,0,3,1,5,3,3,14,2	0,0,0,0,0,0,0,0,0,0,0,0,0,0,0,0,0,0,0,0,0,0,0,0,0,0,0,0,0,0,0,0,0,0,0,0,0,0,0,0,0,0,0,0,0,0,0,0,0,0,0,0,0,0,0,0,0,0,0,0,0,0,0,0,0,0,0,0,0,0,0,0,0,0,0,0,0,0,0,0,0,0,0,0,0,0,0,0	0,0,0,0,4,0,0,0,0,0,0,0,0,0,0,0,0,0,0,0,0,1,0,0,0,0,0,0,0,49,0,16,0,0,0,0,0,21,1,0,0,0,4,1,0,0,4,0,0,0,0,0,1,0,0,0,0,1,0,0,0,1,0,0,0,0,0,0,16,0,0,0,0,0,0,1,0,4,0,0,0,21,1,16,49,1,0,0
COMPLEX_CONDITION	24	24,7,17,29.166666666666668,70.83333333333334,2.4285714285714284	855	1.7543859649122806,3.0409356725146197,12.982456140350877,2.923976608187134,0.46783625730994155,12.982456140350877,26.54970760233918,9.5906432748538,10.994152046783626,19.53216374269006,5.380116959064328,51.461988304093566,40.8187134502924,57.42690058479533,2.1052631578947367,40.8187134502924,93.33333333333333,40.70175438596491,12.631578947368421,6.432748538011696,0.7017543859649122,51.461988304093566,1.2865497076023393,11.11111111111111	1,0,1,0,0,2,0,0,0,1,0,3,1,0,0,2,0,0,1,0,0,4,0,0	0,0,0,0,0,0,0,0,0,0,0,0,0,0,0,0,0,0,0,0,0,0,0,0	0,0,0,0,0,0,0,0,0,0,0,0,0,0,0,0,0,0,1,0,0,0,0,0
FEATURE_ENVY	203	203,94,109,46.30541871921182,53.69458128078818,1.1595744680851063	855	1.7543859649122806,1.0526315789473684,0.46783625730994155,53.80116959064327,4.678362573099415,4.678362573099415,3.274853801169591,53.80116959064327,11.228070175438596,14.385964912280702,5.614035087719298,12.514619883040936,19.53216374269006,19.53216374269006,14.853801169590644,12.982456140350877,1.0526315789473684,0.46783625730994155,0.46783625730994155,0.46783625730994155,0.46783625730994155,1.5204678362573099,1.5204678362573099,0.5847953216374269,0.3508771929824561,35.08771929824561,17.77777777777778,68.65497076023391,9.12280701754386,68.65497076023391,22.45614035087719,85.6140350877193,85.6140350877193,0.3508771929824561,24.561403508771928,31.812865497076025,31.812865497076025,17.660818713450293,17.660818713450293,17.660818713450293,17.660818713450293,9.824561403508772,21.169590643274855,21.169590643274855,21.169590643274855,20.818713450292396,20.818713450292396,19.76608187134503,8.654970760233919,3.1578947368421053,3.1578947368421053,68.65497076023391,34.73684210526316,34.73684210526316,66.90058479532163,26.08187134502924,63.74269005847953,87.13450292397661,93.6842105263158,93.6842105263158,61.05263157894737,39.1812865497076,1.6374269005847955,40.0,45.96491228070175,35.08771929824561,10.87719298245614,57.66081871345029,54.15204678362573,53.80116959064327,15.204678362573098,64.32748538011695,29.5906432748538,39.1812865497076,45.146198830409354,57.66081871345029,57.66081871345029,15.204678362573098,1.0526315789473684,0.3508771929824561,43.9766081871345,43.9766081871345,1.4035087719298245,85.6140350877193,85.6140350877193,54.15204678362573,57.66081871345029,15.204678362573098,3.0409356725146197,3.0409356725146197,45.146198830409354,34.73684210526316,34.73684210526316,65.49707602339181,38.3625730994152,70.29239766081872,70.29239766081872,67.83625730994152,30.175438596491226,72.046783625731,64.32748538011695,18.128654970760234,66.90058479532163,45.146198830409354,65.49707602339181,75.55555555555556,38.3625730994152,70.29239766081872,70.29239766081872,18.128654970760234,0.7017543859649122,18.128654970760234,40.70175438596491,38.3625730994152,76.95906432748538,76.95906432748538,76.95906432748538,0.46783625730994155,0.46783625730994155,57.66081871345029,5.146198830409357,39.76608187134503,76.0233918128655,3.625730994152047,87.13450292397661,40.70175438596491,93.6842105263158,93.6842105263158,3.976608187134503,34.73684210526316,0.46783625730994155,21.637426900584796,75.55555555555556,61.63742690058479,61.63742690058479,22.22222222222222,85.6140350877193,85.6140350877193,31.34502923976608,31.34502923976608,52.865497076023395,55.906432748538016,55.906432748538016,55.906432748538016,55.906432748538016,55.906432748538016,55.906432748538016,55.906432748538016,53.918128654970765,52.397660818713454,45.49707602339181,31.34502923976608,15.204678362573098,40.70175438596491,0.46783625730994155,15.204678362573098,14.853801169590644,14.853801169590644,14.853801169590644,14.853801169590644,14.853801169590644,20.116959064327485,22.573099415204677,68.65497076023391,40.70175438596491,40.70175438596491,14.853801169590644,14.385964912280702,15.204678362573098,1.4035087719298245,30.87719298245614,26.198830409356727,26.198830409356727,45.146198830409354,45.146198830409354,45.146198830409354,25.730994152046783,87.13450292397661,40.70175438596491,93.6842105263158,93.6842105263158,14.853801169590644,15.321637426900587,12.631578947368421,12.631578947368421,15.321637426900587,32.16374269005848,72.046783625731,63.74269005847953,61.05263157894737,12.631578947368421,6.081871345029239,36.95906432748538,36.95906432748538,85.6140350877193,85.6140350877193,15.204678362573098,0.8187134502923977,15.204678362573098,18.71345029239766,45.49707602339181,14.853801169590644,14.853801169590644	0,1,1,3,1,1,1,4,1,0,0,1,0,0,1,0,1,1,1,2,2,3,2,0,1,1,1,3,1,4,1,5,5,1,0,1,1,3,3,3,2,0,6,2,2,2,2,0,0,0,0,6,4,4,2,0,1,2,2,2,1,2,0,1,1,2,1,4,1,6,3,2,0,3,2,5,7,4,0,0,0,0,0,6,6,2,10,6,1,1,1,5,5,1,3,2,2,2,0,1,3,3,3,3,2,0,4,3,3,4,0,6,0,6,0,0,0,1,1,0,1,0,3,1,3,1,3,3,1,0,0,1,0,0,0,0,8,8,2,2,2,0,0,0,0,0,0,0,0,0,2,1,1,1,1,0,0,0,0,0,0,0,0,9,0,2,0,0,0,1,0,0,0,0,2,5,0,5,2,5,5,0,0,0,0,0,0,2,2,2,0,0,4,4,11,11,0,0,2,0,3,0,0	0,0,0,0,0,0,0,0,0,0,0,0,0,0,0,0,0,0,0,0,0,0,0,0,0,0,0,0,0,0,0,1,1,0,0,0,0,0,0,0,0,0,0,0,0,0,0,0,0,0,0,0,0,0,0,0,0,0,0,0,0,0,0,0,0,0,0,0,0,0,0,0,0,0,0,0,0,0,0,0,0,0,0,0,0,0,0,0,0,0,0,0,0,0,0,0,0,0,0,0,0,0,0,0,0,0,0,0,0,0,0,0,0,0,0,0,0,0,0,0,0,0,0,0,0,0,0,0,0,0,0,0,0,0,0,0,0,0,0,0,0,0,0,0,0,0,0,0,0,0,0,0,0,0,0,0,0,0,0,0,0,0,0,0,0,0,0,0,0,0,0,0,0,0,0,0,0,0,0,0,0,0,0,0,0,0,0,0,0,0,0,0,0,0,0,0,0,0,0,0,0,0,0	0,0,0,0,0,0,0,0,0,0,0,0,0,0,0,0,0,0,0,0,0,1,1,0,0,0,0,0,0,0,0,1,1,0,0,0,0,1,1,1,1,0,3,1,1,1,1,0,0,0,0,0,1,1,0,0,0,0,0,0,0,0,0,0,2,0,0,0,0,0,0,0,0,0,0,0,0,0,0,0,0,0,0,1,1,0,0,0,0,0,0,1,1,0,0,0,0,1,0,0,0,0,0,0,0,0,0,0,0,0,0,0,0,0,0,0,0,0,0,0,0,0,2,0,0,0,0,0,0,0,0,0,0,0,0,0,1,1,1,1,1,0,0,0,0,0,0,0,0,0,1,0,0,0,0,0,0,0,0,0,0,0,0,0,0,0,0,0,0,0,0,0,0,0,0,0,0,0,0,0,0,0,0,0,0,0,0,0,0,0,0,0,1,1,1,1,0,0,0,0,1,0,0
ClASS_DATA_SHOULD_BE_PRIVATE	1	1,0,1,0.0,100.0,Infinity	855	1.7543859649122806	0	0	0
SHOTGUN_SURGERY	23	23,18,5,78.26086956521739,21.73913043478261,0.2777777777777778	855	99.88304093567251,11.345029239766081,54.50292397660819,87.60233918128655,71.11111111111111,99.88304093567251,71.11111111111111,62.10526315789474,41.63742690058479,21.871345029239766,44.32748538011696,47.83625730994152,60.81871345029239,41.63742690058479,99.88304093567251,99.88304093567251,16.140350877192983,76.25730994152048,87.60233918128655,92.63157894736842,16.72514619883041,99.88304093567251,92.98245614035088	1,1,0,1,1,1,2,1,2,0,0,0,0,3,0,2,0,0,2,0,0,2,0	0,0,0,0,0,0,0,0,0,0,0,0,0,0,0,0,0,0,0,0,0,0,0	0,0,0,0,0,0,0,0,0,0,0,0,0,0,0,0,0,0,0,0,0,0,0
DATA_CLASS	39	39,26,13,66.66666666666666,33.33333333333333,0.5	855	1.6374269005847955,0.9356725146198831,0.9356725146198831,0.46783625730994155,40.58479532163743,0.46783625730994155,50.058479532163744,0.5847953216374269,55.906432748538016,80.46783625730994,66.19883040935673,65.49707602339181,99.88304093567251,99.88304093567251,40.23391812865497,74.3859649122807,70.29239766081872,76.95906432748538,65.49707602339181,40.8187134502924,46.54970760233918,99.88304093567251,61.28654970760235,40.8187134502924,92.7485380116959,0.9356725146198831,8.421052631578947,7.953216374269006,12.280701754385964,12.280701754385964,36.25730994152047,27.485380116959064,4.3274853801169595,4.3274853801169595,4.3274853801169595,4.093567251461988,92.7485380116959,17.660818713450293,99.88304093567251	0,0,0,0,0,0,1,0,0,0,0,0,0,0,0,2,0,0,0,4,0,0,0,5,0,0,0,0,1,2,1,0,0,0,0,0,0,0,0	0,0,0,0,0,0,0,0,0,0,0,0,0,0,0,0,0,0,0,0,0,0,0,0,0,0,0,0,0,0,0,0,0,0,0,0,0,0,0	0,0,0,0,0,0,0,0,0,0,0,0,0,0,0,1,0,0,0,1,0,0,0,1,0,0,0,0,0,0,0,0,0,0,0,0,0,0,0
MIDDLE_MAN	1	1,1,0,100.0,0.0,0.0	855	69.94152046783626	0	0	0
LONG_METHOD	22	22,22,0,100.0,0.0,0.0	855	93.33333333333333,93.33333333333333,93.33333333333333,93.33333333333333,93.33333333333333,93.33333333333333,93.33333333333333,93.33333333333333,93.33333333333333,93.33333333333333,93.33333333333333,93.33333333333333,93.33333333333333,93.33333333333333,93.33333333333333,93.33333333333333,93.33333333333333,93.33333333333333,93.33333333333333,93.33333333333333,93.33333333333333,93.33333333333333	0,0,0,0,0,0,0,0,0,0,0,0,0,0,0,0,0,0,0,0,0,0	0,0,0,0,0,0,0,0,0,0,0,0,0,0,0,0,0,0,0,0,0,0	0,0,0,0,0,0,0,0,0,0,0,0,0,0,0,0,0,0,0,0,0,0
REFUSED_PARENT_BEQUEST	11	11,10,1,90.9090909090909,9.090909090909092,0.1	855	93.33333333333333,93.33333333333333,93.33333333333333,93.33333333333333,93.33333333333333,93.33333333333333,93.33333333333333,93.33333333333333,93.33333333333333,1.1695906432748537,96.72514619883042	0,0,0,0,0,0,0,0,0,1,2	0,0,0,0,0,0,0,0,0,0,0	0,0,0,0,0,0,0,0,0,0,1
