67,24,43,35.82089552238806,64.17910447761194,1.7916666666666667
COMPLEX_METHOD	13	13,4,9,30.76923076923077,69.23076923076923,2.25	56	7.142857142857142,7.142857142857142,7.142857142857142,5.357142857142857,10.714285714285714,7.142857142857142,3.571428571428571,33.92857142857143,16.071428571428573,46.42857142857143,85.71428571428571,67.85714285714286,46.42857142857143	1,1,2,1,3,1,1,3,1,0,4,2,0	0,0,0,0,0,0,0,0,0,0,0,0,0	0,0,0,0,1,0,0,2,1,0,2,1,0
DEAD_CODE	12	12,2,10,16.666666666666664,83.33333333333334,5.0	56	21.428571428571427,3.571428571428571,3.571428571428571,3.571428571428571,3.571428571428571,7.142857142857142,3.571428571428571,19.642857142857142,3.571428571428571,12.5,16.071428571428573,1.7857142857142856	0,1,1,0,0,0,0,0,1,0,0,0	0,0,0,0,0,0,0,0,0,0,0,0	0,0,0,0,0,0,0,0,0,0,0,0
NESTED_BLOCK_DEPTH	30	30,9,21,30.0,70.0,2.3333333333333335	56	7.142857142857142,7.142857142857142,7.142857142857142,21.428571428571427,21.428571428571427,16.071428571428573,7.142857142857142,7.142857142857142,21.428571428571427,16.071428571428573,10.714285714285714,10.714285714285714,21.428571428571427,21.428571428571427,26.785714285714285,17.857142857142858,37.5,16.071428571428573,16.071428571428573,8.928571428571429,75.0,42.857142857142854,16.071428571428573,39.285714285714285,89.28571428571429,67.85714285714286,67.85714285714286,60.71428571428571,42.857142857142854,8.928571428571429	1,1,1,4,5,3,1,2,7,4,2,2,0,8,8,3,5,1,1,1,0,0,0,1,6,2,2,2,0,0	0,0,0,0,0,0,0,0,0,0,0,0,0,0,0,0,0,0,0,0,0,0,0,0,0,0,0,0,0,0	0,0,0,1,1,1,0,0,1,1,2,1,0,1,1,1,2,1,1,1,0,0,0,0,2,1,1,1,0,0
DATA_CLASS	6	6,4,2,66.66666666666666,33.33333333333333,0.5	56	3.571428571428571,3.571428571428571,75.0,51.78571428571429,60.71428571428571,35.714285714285715	1,1,0,0,0,0	0,0,0,0,0,0	0,0,0,0,0,0
ClASS_DATA_SHOULD_BE_PRIVATE	5	5,4,1,80.0,20.0,0.25	56	41.07142857142857,89.28571428571429,92.85714285714286,60.71428571428571,35.714285714285715	1,0,2,0,0	0,0,0,0,0	1,0,1,0,0
COMPLEX_CONDITION	1	1,1,0,100.0,0.0,0.0	56	42.857142857142854	0	0	0
