436,200,236,45.87155963302752,54.12844036697248,1.18
COMPLEX_CONDITION	40	40,10,30,25.0,75.0,3.0	1666	0.24009603841536614,2.881152460984394,3.061224489795918,0.36014405762304924,2.0408163265306123,2.0408163265306123,2.0408163265306123,2.0408163265306123,2.0408163265306123,9.30372148859544,9.30372148859544,9.30372148859544,9.30372148859544,9.30372148859544,17.707082833133253,14.705882352941178,0.6002400960384154,6.8427370948379345,15.606242496998798,6.8427370948379345,6.662665066026411,11.28451380552221,14.285714285714285,9.003601440576231,47.418967587034814,47.418967587034814,47.418967587034814,45.378151260504204,28.271308523409367,27.25090036014406,88.11524609843937,9.483793517406964,21.788715486194477,21.788715486194477,30.85234093637455,30.85234093637455,30.85234093637455,6.482593037214886,6.482593037214886,6.482593037214886	0,0,0,1,0,0,0,0,0,1,1,1,1,1,0,0,0,0,0,0,0,1,0,0,0,0,0,0,0,0,0,0,0,0,0,0,0,1,1,1	0,0,0,0,0,0,0,0,0,0,0,0,0,0,0,0,0,0,0,0,0,0,0,0,0,0,0,1,1,0,0,0,0,0,0,0,0,1,1,1	0,0,0,0,0,0,0,0,0,0,0,0,0,0,0,0,0,0,0,0,0,0,0,0,0,0,0,0,0,0,0,0,0,0,0,0,0,1,1,1
DATA_CLASS	76	76,39,37,51.31578947368421,48.68421052631579,0.9487179487179487	1666	62.484993997599034,8.343337334933974,8.343337334933974,8.343337334933974,8.343337334933974,100.0,100.0,100.0,100.0,100.0,3.0012004801920766,18.127250900360146,18.127250900360146,18.127250900360146,9.843937575030012,18.127250900360146,18.127250900360146,9.843937575030012,9.843937575030012,9.843937575030012,3.361344537815126,0.6002400960384154,33.61344537815126,62.484993997599034,27.43097238895558,45.13805522208884,100.0,35.95438175270108,60.024009603841534,100.0,100.0,100.0,100.0,100.0,100.0,100.0,100.0,100.0,100.0,100.0,24.489795918367346,24.489795918367346,59.96398559423769,100.0,100.0,60.024009603841534,84.33373349339736,84.33373349339736,84.33373349339736,84.33373349339736,100.0,100.0,10.984393757503002,10.024009603841536,90.09603841536614,6.482593037214886,6.482593037214886,6.482593037214886,6.482593037214886,6.482593037214886,7.202881152460984,7.202881152460984,7.202881152460984,6.482593037214886,6.482593037214886,6.482593037214886,6.482593037214886,6.482593037214886,6.482593037214886,6.482593037214886,6.482593037214886,6.482593037214886,6.482593037214886,2.34093637454982,4.561824729891957,84.33373349339736	2,0,0,0,0,2,2,3,3,1,0,3,3,3,1,3,3,1,1,1,1,1,1,3,1,0,0,0,0,0,0,0,0,0,0,0,0,0,0,0,0,0,0,2,2,0,0,0,1,0,5,5,0,1,0,1,1,1,1,1,0,0,0,1,1,1,1,1,1,1,1,1,1,0,0,2	0,0,0,0,0,0,0,0,0,0,0,0,0,0,0,0,0,0,0,0,0,0,0,0,0,0,0,0,0,0,0,0,0,0,0,0,0,0,0,0,0,0,0,0,0,0,0,0,0,0,0,0,0,0,0,0,0,0,0,0,0,0,0,0,0,0,0,0,0,0,0,0,0,0,0,0	0,0,0,0,0,0,0,0,0,0,0,1,1,1,0,1,1,0,0,0,0,0,0,0,0,0,0,0,0,0,0,0,0,0,0,0,0,0,0,0,0,0,0,0,1,0,0,0,0,0,0,0,0,0,0,0,0,0,0,0,0,0,0,0,0,0,0,0,0,0,0,0,0,0,0,0
DEAD_CODE	60	60,21,39,35.0,65.0,1.8571428571428572	1666	4.8019207683073235,3.061224489795918,1.9207683073229291,4.921968787515006,3.6614645858343335,0.6002400960384154,4.8019207683073235,9.30372148859544,2.1608643457382954,2.1608643457382954,2.1608643457382954,2.1608643457382954,2.1608643457382954,8.883553421368548,8.883553421368548,8.883553421368548,8.883553421368548,8.883553421368548,1.800720288115246,26.650660264105642,0.36014405762304924,0.36014405762304924,0.36014405762304924,0.36014405762304924,0.36014405762304924,0.24009603841536614,17.346938775510203,17.346938775510203,17.346938775510203,17.286914765906364,16.56662665066026,57.863145258103245,57.863145258103245,82.83313325330131,22.629051620648262,39.91596638655462,22.689075630252102,39.91596638655462,73.28931572629051,94.71788715486194,35.65426170468187,35.65426170468187,64.1656662665066,11.344537815126051,16.86674669867947,50.0,54.56182472989196,54.56182472989196,14.585834333733494,87.69507803121247,50.0,1.9207683073229291,6.602641056422569,6.602641056422569,35.65426170468187,35.65426170468187,35.65426170468187,33.193277310924366,82.83313325330131,4.501800720288116	1,0,0,0,1,0,2,0,0,0,0,0,0,1,1,1,1,1,0,0,1,1,1,1,1,1,0,0,0,0,0,1,1,1,0,0,0,0,0,0,0,0,0,0,0,0,0,0,1,0,0,0,0,0,0,0,0,0,2,0	0,0,0,0,0,0,0,0,0,0,0,0,0,0,0,0,0,0,0,0,0,0,0,0,0,0,0,0,0,0,0,0,0,0,0,0,0,0,0,0,0,0,0,0,0,0,0,0,0,0,0,0,0,0,0,0,0,0,0,0	0,0,0,0,0,0,0,0,0,0,0,0,0,0,0,0,0,0,0,0,0,0,0,0,0,0,0,0,0,0,0,0,0,0,0,0,0,0,0,0,0,0,0,0,0,0,0,0,1,0,0,0,0,0,0,0,0,0,0,0
GOD_CLASS	6	6,2,4,33.33333333333333,66.66666666666666,2.0	1666	100.0,26.650660264105642,31.332533013205282,0.24009603841536614,0.24009603841536614,100.0	1,0,0,1,1,2	0,0,0,0,0,0	0,0,0,0,0,0
SHOTGUN_SURGERY	35	35,24,11,68.57142857142857,31.428571428571427,0.4583333333333333	1666	100.0,100.0,100.0,100.0,91.83673469387756,17.22689075630252,30.972388955582232,62.42496998799519,75.51020408163265,76.41056422569028,46.99879951980792,100.0,75.51020408163265,19.687875150060023,20.888355342136855,76.41056422569028,46.99879951980792,100.0,8.343337334933974,13.865546218487395,100.0,20.048019207683073,11.344537815126051,27.370948379351738,100.0,100.0,43.637454981992796,11.344537815126051,11.344537815126051,56.182472989195674,90.09603841536614,90.93637454981993,100.0,100.0,34.513805522208884	1,1,2,3,1,1,1,1,3,4,4,7,4,3,1,5,5,2,1,0,0,0,0,4,8,10,0,0,0,4,0,7,2,0,7	0,0,0,0,0,0,0,0,1,1,1,1,0,0,0,0,0,0,0,0,0,0,0,0,0,0,0,0,0,0,0,0,0,0,0	0,0,0,0,0,0,0,0,1,0,0,0,1,0,0,0,0,0,0,0,0,0,0,1,0,0,0,0,0,2,0,1,0,0,1
NESTED_BLOCK_DEPTH	84	84,40,44,47.61904761904761,52.38095238095239,1.1	1666	99.87995198079231,7.9831932773109235,64.34573829531813,2.220888355342137,2.4009603841536618,1.1404561824729893,2.34093637454982,1.2004801920768309,6.722689075630252,6.902761104441776,6.722689075630252,12.545018007202883,7.9831932773109235,0.18007202881152462,2.881152460984394,2.881152460984394,98.07923169267707,7.022809123649459,2.881152460984394,99.87995198079231,56.60264105642256,3.6614645858343335,16.986794717887154,17.346938775510203,26.650660264105642,26.650660264105642,26.650660264105642,5.88235294117647,25.8703481392557,33.25330132052821,38.23529411764706,28.991596638655466,16.626650660264104,16.986794717887154,62.60504201680672,46.99879951980792,55.162064825930365,62.60504201680672,51.20048019207684,18.007202881152462,45.79831932773109,64.34573829531813,56.60264105642256,58.103241296518604,91.11644657863145,58.103241296518604,58.103241296518604,58.103241296518604,78.031212484994,98.07923169267707,90.57623049219687,18.847539015606245,55.162064825930365,8.403361344537815,77.31092436974791,95.85834333733494,13.865546218487395,13.865546218487395,13.865546218487395,13.865546218487395,13.865546218487395,56.48259303721489,51.20048019207684,51.20048019207684,10.984393757503002,90.15606242496999,76.2905162064826,59.903961584633855,59.903961584633855,58.22328931572629,54.021608643457384,98.07923169267707,33.97358943577431,38.055222088835535,92.97719087635053,83.79351740696278,63.92557022809123,74.06962785114045,99.87995198079231,6.482593037214886,28.331332533013203,4.081632653061225,62.60504201680672,82.11284513805522	3,2,2,1,0,0,1,1,0,0,1,0,3,1,1,2,1,0,1,6,1,1,2,1,0,0,0,1,1,1,1,1,1,3,4,1,1,6,1,1,1,3,2,0,1,0,0,0,0,3,0,0,2,0,3,0,0,0,0,0,0,0,0,2,0,0,0,0,0,0,0,4,0,3,0,0,2,0,9,1,0,0,8,0	0,0,0,0,0,0,0,0,0,0,0,0,0,0,0,0,0,0,0,0,0,0,0,0,0,0,0,0,0,0,0,0,0,0,0,0,0,0,0,0,0,0,0,0,0,0,0,0,1,1,0,0,0,0,0,0,0,0,0,0,0,0,0,0,0,0,0,0,0,0,0,0,0,0,0,0,0,0,0,0,0,0,0,0	0,0,0,0,0,0,0,0,0,0,0,0,0,0,0,0,0,0,0,0,0,0,0,0,0,0,0,0,0,0,0,0,0,0,0,0,0,0,0,0,0,0,0,0,0,0,0,0,0,0,0,0,0,0,0,0,0,0,0,0,0,0,0,0,0,0,0,0,0,0,0,0,0,1,0,0,1,0,0,1,0,0,0,0
BRAIN_METHOD	21	21,7,14,33.33333333333333,66.66666666666666,2.0	1666	2.4009603841536618,2.34093637454982,1.2004801920768309,6.902761104441776,6.722689075630252,3.7815126050420167,1.2605042016806722,7.022809123649459,17.346938775510203,25.930372148859544,16.626650660264104,1.9807923169267705,62.60504201680672,62.60504201680672,21.90876350540216,90.57623049219687,56.48259303721489,10.984393757503002,38.055222088835535,73.16926770708282,62.60504201680672	0,1,1,0,1,1,0,0,1,0,1,1,4,6,1,0,0,0,3,0,8	0,0,0,0,0,0,0,0,0,0,0,0,0,0,0,0,0,0,0,0,0	0,0,0,0,0,0,0,0,0,0,0,0,0,0,0,0,0,0,1,0,0
COMPLEX_METHOD	42	42,17,25,40.476190476190474,59.523809523809526,1.4705882352941178	1666	2.4009603841536618,1.1404561824729893,2.34093637454982,1.2004801920768309,6.722689075630252,6.902761104441776,6.722689075630252,12.545018007202883,1.2605042016806722,98.07923169267707,7.022809123649459,2.881152460984394,16.986794717887154,17.346938775510203,26.650660264105642,26.650660264105642,25.930372148859544,16.44657863145258,16.626650660264104,16.986794717887154,62.60504201680672,62.60504201680672,58.103241296518604,57.14285714285714,98.07923169267707,90.57623049219687,8.403361344537815,84.03361344537815,19.267707082833134,13.865546218487395,56.48259303721489,10.984393757503002,91.65666266506602,100.0,100.0,59.903961584633855,54.021608643457384,98.07923169267707,38.055222088835535,77.6110444177671,63.92557022809123,62.60504201680672	0,0,1,1,0,0,1,0,0,1,0,1,2,1,0,0,0,1,1,3,4,6,0,0,3,0,0,0,1,0,0,0,2,0,0,0,0,4,3,0,2,8	0,0,0,0,0,0,0,0,0,0,0,0,0,0,0,0,0,0,0,0,0,0,0,1,1,0,0,0,0,0,0,0,0,0,0,0,0,0,0,0,0,0	0,0,0,0,0,0,0,0,0,0,0,41,0,0,0,0,0,0,0,0,0,0,0,0,0,0,0,0,0,0,0,0,41,0,0,0,0,0,1,0,1,0
FEATURE_ENVY	50	50,31,19,62.0,38.0,0.6129032258064516	1666	1.1404561824729893,0.18007202881152462,54.98199279711885,60.38415366146459,60.38415366146459,13.62545018007203,78.99159663865547,78.99159663865547,78.87154861944778,2.0408163265306123,16.44657863145258,64.52581032412965,0.12004801920768307,0.12004801920768307,54.98199279711885,64.52581032412965,32.23289315726291,22.749099639855945,60.38415366146459,57.262905162064826,76.2905162064826,21.668667466986793,21.788715486194477,18.30732292917167,100.0,17.346938775510203,30.132052821128454,72.32893157262905,16.086434573829532,79.41176470588235,56.48259303721489,100.0,100.0,59.903961584633855,76.2905162064826,30.132052821128454,54.56182472989196,16.086434573829532,21.668667466986793,21.428571428571427,6.722689075630252,6.182472989195678,78.21128451380552,61.88475390156063,6.482593037214886,6.482593037214886,6.482593037214886,35.414165666266506,78.87154861944778,78.87154861944778	0,1,2,3,4,1,1,1,1,1,1,1,1,1,3,2,1,0,6,3,1,1,0,0,0,0,1,3,1,0,0,0,0,0,2,2,0,2,2,0,0,0,0,0,2,2,1,0,3,4	0,0,0,0,0,0,0,0,0,0,0,0,0,0,0,0,0,0,0,1,1,0,0,0,0,0,0,0,0,0,0,0,0,0,0,0,0,0,0,0,0,0,0,0,1,1,0,0,0,0	0,0,0,0,0,0,0,0,0,0,0,0,0,0,0,0,0,0,0,0,0,0,0,0,0,0,0,0,0,0,0,0,0,0,0,0,0,0,0,0,0,0,0,0,1,1,1,0,0,0
LONG_METHOD	6	6,1,5,16.666666666666664,83.33333333333334,5.0	1666	1.2004801920768309,4.201680672268908,2.2809123649459786,2.34093637454982,10.984393757503002,37.99519807923169	1,1,0,0,0,3	0,0,0,0,0,0	0,0,0,0,0,1
REFUSED_PARENT_BEQUEST	16	16,8,8,50.0,50.0,1.0	1666	3.0012004801920766,0.6602641056422569,0.3001200480192077,43.39735894357743,0.24009603841536614,33.61344537815126,37.21488595438176,77.6110444177671,77.6110444177671,35.65426170468187,35.65426170468187,77.6110444177671,1.9207683073229291,78.45138055222088,35.65426170468187,35.65426170468187	1,1,1,3,1,1,1,2,3,0,0,5,1,2,0,0	0,0,0,0,0,0,0,1,0,0,0,0,0,0,0,0	0,1,10,1,0,0,0,0,0,0,0,0,0,10,0,0
