149,91,58,61.07382550335571,38.92617449664429,0.6373626373626373
DATA_CLASS	7	7,0,7,0.0,100.0,Infinity	514	0.5836575875486382,0.5836575875486382,0.5836575875486382,1.556420233463035,0.38910505836575876,0.38910505836575876,11.478599221789883	0,1,0,0,1,1,0	0,0,0,0,0,0,0	0,0,0,0,0,0,0
COMPLEX_METHOD	20	20,14,6,70.0,30.0,0.42857142857142855	514	1.556420233463035,35.60311284046693,41.050583657587545,40.856031128404666,42.023346303501945,95.3307392996109,95.13618677042801,42.023346303501945,79.57198443579766,57.39299610894941,16.147859922178988,91.82879377431907,91.82879377431907,95.3307392996109,95.13618677042801,60.311284046692606,39.29961089494164,28.98832684824903,97.85992217898833,97.85992217898833	2,0,2,2,6,3,3,0,0,0,0,0,0,4,4,2,0,0,2,2	0,0,0,0,0,0,0,0,0,0,0,0,0,0,0,0,0,0,0,0	1,0,2,2,3,2,2,0,0,0,0,0,0,2,2,1,0,0,1,1
NESTED_BLOCK_DEPTH	41	41,29,12,70.73170731707317,29.268292682926827,0.41379310344827586	514	1.7509727626459144,41.43968871595331,41.43968871595331,41.43968871595331,41.43968871595331,41.43968871595331,35.60311284046693,41.050583657587545,40.856031128404666,42.023346303501945,95.71984435797665,95.71984435797665,95.71984435797665,95.71984435797665,95.71984435797665,95.3307392996109,95.13618677042801,42.023346303501945,74.31906614785993,79.57198443579766,95.71984435797665,99.22178988326849,57.39299610894941,95.71984435797665,62.45136186770428,53.11284046692607,23.151750972762645,91.82879377431907,21.40077821011673,95.71984435797665,95.71984435797665,95.71984435797665,95.71984435797665,95.71984435797665,95.3307392996109,95.13618677042801,60.311284046692606,28.98832684824903,97.85992217898833,97.85992217898833,97.85992217898833	3,2,2,2,2,2,0,2,2,6,3,3,3,3,3,3,3,0,0,0,0,6,0,0,2,0,0,0,1,4,4,4,4,4,4,4,2,0,2,2,2	1,0,0,0,0,0,0,0,0,0,0,0,0,0,0,0,0,0,0,0,0,0,0,0,0,0,0,0,0,0,0,0,0,0,0,0,0,0,0,0,0	1,2,2,2,2,2,0,2,2,3,2,2,2,2,2,2,2,0,0,0,0,3,0,0,1,0,0,0,0,2,2,2,2,2,2,2,1,0,1,1,1
FEATURE_ENVY	35	35,22,13,62.857142857142854,37.142857142857146,0.5909090909090909	514	0.5836575875486382,0.7782101167315175,1.9455252918287937,41.050583657587545,41.050583657587545,40.856031128404666,40.66147859922179,40.66147859922179,40.66147859922179,43.57976653696498,54.474708171206224,54.474708171206224,2.3346303501945527,95.3307392996109,95.3307392996109,95.13618677042801,42.023346303501945,74.31906614785993,30.35019455252918,99.22178988326849,53.89105058365759,53.11284046692607,21.40077821011673,95.3307392996109,95.3307392996109,95.13618677042801,95.52529182879378,45.91439688715953,99.22178988326849,54.474708171206224,54.474708171206224,52.33463035019456,52.14007782101168,35.992217898832685,22.37354085603113	1,1,1,2,2,2,3,1,1,0,1,1,1,3,3,3,0,0,1,1,0,0,1,4,4,4,2,4,1,2,2,0,0,0,0	0,0,0,0,0,0,0,0,0,0,0,0,0,0,0,0,0,0,0,0,0,0,0,0,0,0,0,0,0,0,0,0,0,0,0	0,0,0,2,2,2,1,0,0,0,0,0,0,2,2,2,0,0,0,1,0,0,0,2,2,2,1,2,1,0,0,0,0,0,0
DEAD_CODE	15	15,4,11,26.666666666666668,73.33333333333333,2.75	514	0.38910505836575876,3.6964980544747084,1.7509727626459144,1.3618677042801557,11.284046692607005,41.63424124513619,40.66147859922179,40.66147859922179,3.3073929961089497,42.80155642023346,42.80155642023346,16.342412451361866,97.66536964980544,15.953307392996107,93.19066147859922	0,3,1,1,4,2,1,1,0,1,1,0,0,0,0	0,0,0,0,0,0,0,0,0,0,0,0,0,0,0	0,1,0,0,2,2,1,1,0,0,0,0,0,0,0
GOD_CLASS	11	11,8,3,72.72727272727273,27.27272727272727,0.375	514	99.22178988326849,5.058365758754864,7.782101167315175,16.342412451361866,75.09727626459144,70.62256809338521,99.22178988326849,32.1011673151751,8.171206225680933,52.14007782101168,87.35408560311284	3,3,0,1,0,2,4,2,0,0,0	0,0,0,0,0,0,0,0,0,0,0	1,1,0,1,0,1,1,1,0,0,0
BRAIN_METHOD	9	9,7,2,77.77777777777779,22.22222222222222,0.2857142857142857	514	39.88326848249027,35.797665369649806,94.16342412451361,90.07782101167315,91.82879377431907,94.16342412451361,90.07782101167315,97.85992217898833,97.85992217898833	2,2,3,3,0,4,4,2,2	0,0,0,0,0,0,0,0,0	2,2,2,2,0,2,2,1,1
CYCLE	4	4,2,2,50.0,50.0,1.0	514	40.07782101167315,40.07782101167315,54.474708171206224,54.474708171206224	0,0,0,0	0,0,0,0	0,0,0,0
COMPLEX_CONDITION	5	5,3,2,60.0,40.0,0.6666666666666666	514	6.22568093385214,5.642023346303502,33.26848249027237,49.0272373540856,28.21011673151751	0,0,0,0,0	0,0,0,0,0	0,0,0,0,0
LONG_METHOD	1	1,1,0,100.0,0.0,0.0	514	91.82879377431907	2	0	1
SHOTGUN_SURGERY	1	1,1,0,100.0,0.0,0.0	514	37.54863813229572	0	0	0
