448,181,267,40.401785714285715,59.59821428571429,1.4751381215469612
DATA_CLASS	30	30,13,17,43.333333333333336,56.666666666666664,1.3076923076923077	1316	0.7598784194528876,0.7598784194528876,0.7598784194528876,0.9878419452887538,0.9878419452887538,1.6717325227963524,24.924012158054712,0.303951367781155,41.56534954407295,5.243161094224924,39.8936170212766,41.56534954407295,35.94224924012158,25.455927051671733,16.869300911854104,61.32218844984803,4.5592705167173255,23.17629179331307,23.17629179331307,54.17933130699089,61.32218844984803,91.7933130699088,34.57446808510639,58.43465045592705,58.43465045592705,96.35258358662614,64.74164133738601,1.7477203647416413,69.37689969604864,0.303951367781155	1,1,1,2,3,3,1,1,5,0,0,6,1,4,0,1,1,0,1,0,2,2,0,0,0,2,2,0,4,0	0,0,0,1,1,0,0,0,0,0,0,0,0,0,0,0,0,0,0,0,0,0,0,0,0,0,0,0,0,0	1,1,2,1,1,2,0,0,2,0,0,2,0,2,0,0,0,0,1,0,0,1,0,0,0,1,1,0,2,0
FEATURE_ENVY	124	124,59,65,47.58064516129033,52.41935483870967,1.1016949152542372	1316	38.67781155015197,1.7477203647416413,1.6717325227963524,8.814589665653495,11.018237082066868,11.170212765957446,16.261398176291795,11.246200607902736,1.21580547112462,5.319148936170213,14.361702127659576,28.951367781155014,21.732522796352583,19.908814589665656,91.71732522796353,0.60790273556231,0.60790273556231,0.60790273556231,0.60790273556231,14.05775075987842,2.2036474164133737,17.705167173252278,0.303951367781155,5.319148936170213,0.60790273556231,36.17021276595745,38.67781155015197,1.6717325227963524,0.303951367781155,33.586626139817625,33.586626139817625,18.31306990881459,86.70212765957447,91.71732522796353,68.00911854103343,2.2796352583586628,2.2796352583586628,2.2796352583586628,25.227963525835868,16.337386018237083,20.51671732522796,36.17021276595745,29.17933130699088,50.607902735562305,50.98784194528876,32.97872340425532,94.14893617021278,16.869300911854104,34.650455927051674,40.349544072948326,20.972644376899694,45.66869300911854,45.66869300911854,41.33738601823708,17.62917933130699,2.507598784194529,6.382978723404255,34.954407294832826,9.954407294832828,28.951367781155014,1.1398176291793314,14.209726443768997,3.7993920972644375,51.747720364741646,15.80547112462006,15.80547112462006,23.17629179331307,18.237082066869302,25.07598784194529,15.80547112462006,15.80547112462006,19.376899696048632,21.808510638297875,7.446808510638298,7.446808510638298,7.446808510638298,7.446808510638298,7.446808510638298,7.446808510638298,15.121580547112462,21.808510638297875,86.70212765957447,91.71732522796353,68.00911854103343,33.05471124620061,26.74772036474164,87.99392097264437,73.63221884498479,73.55623100303951,73.40425531914893,59.49848024316109,33.05471124620061,56.23100303951368,56.23100303951368,51.139817629179326,26.74772036474164,26.74772036474164,26.74772036474164,76.67173252279636,58.43465045592705,64.74164133738601,72.49240121580547,64.05775075987842,94.14893617021278,64.66565349544074,56.23100303951368,56.23100303951368,56.23100303951368,56.23100303951368,23.17629179331307,0.911854103343465,9.270516717325227,1.21580547112462,1.21580547112462,60.182370820668694,52.35562310030395,7.446808510638298,21.808510638297875,0.303951367781155,0.303951367781155,0.303951367781155,0.303951367781155,0.303951367781155,17.477203647416413	1,0,0,1,1,1,1,1,1,0,0,1,0,0,2,0,0,0,0,1,1,0,0,0,1,4,2,0,1,0,0,0,1,3,1,0,0,5,1,3,2,3,3,3,3,1,10,0,2,1,1,0,0,0,5,1,1,5,1,5,1,2,1,7,1,1,1,1,1,2,2,0,2,0,0,0,0,0,0,0,2,2,5,2,0,0,0,0,0,0,4,2,0,0,0,0,0,0,0,0,2,4,4,11,2,0,0,0,0,2,1,0,0,0,2,0,0,0,0,0,0,0,0,0	0,0,0,0,0,0,0,0,0,0,0,0,0,0,0,0,0,0,0,0,0,0,0,0,0,0,0,0,0,0,0,0,0,0,0,0,0,0,0,0,0,0,0,0,0,0,0,0,0,0,0,0,0,0,0,0,0,0,0,0,0,0,0,0,0,0,0,0,0,0,0,0,0,0,0,0,0,0,0,0,0,0,0,0,0,0,0,0,0,0,0,0,0,0,0,0,0,0,0,0,0,0,0,0,0,0,0,0,0,0,0,0,0,0,0,0,0,0,0,0,0,0,0,0	0,0,0,0,0,0,0,0,0,0,0,0,0,0,0,0,0,0,0,0,0,0,0,0,0,2,0,0,0,0,0,0,0,0,0,0,0,2,1,2,1,1,1,1,2,0,2,0,1,0,0,0,0,0,1,0,0,1,0,2,0,2,1,3,0,0,0,0,0,0,0,0,1,0,0,0,0,0,0,0,1,0,0,0,0,0,0,0,0,0,2,1,0,0,0,0,0,0,0,0,1,2,2,2,1,0,0,0,0,0,0,0,0,0,1,0,0,0,0,0,0,0,0,0
DEAD_CODE	207	207,65,142,31.40096618357488,68.59903381642512,2.1846153846153844	1316	1.7477203647416413,2.0516717325227964,2.2796352583586628,11.4741641337386,10.410334346504559,10.410334346504559,10.030395136778116,10.030395136778116,3.4954407294832825,1.1398176291793314,2.9635258358662613,8.966565349544073,9.19452887537994,10.410334346504559,10.410334346504559,10.410334346504559,1.3677811550151975,0.8358662613981762,15.501519756838904,6.6109422492401215,29.103343465045594,20.212765957446805,0.22796352583586624,0.22796352583586624,20.51671732522796,31.231003039513677,31.231003039513677,31.231003039513677,31.231003039513677,31.231003039513677,31.231003039513677,31.231003039513677,31.231003039513677,31.231003039513677,31.231003039513677,33.51063829787234,22.56838905775076,1.1398176291793314,1.1398176291793314,1.1398176291793314,1.1398176291793314,1.1398176291793314,0.1519756838905775,0.1519756838905775,0.4559270516717325,0.4559270516717325,0.3799392097264438,0.4559270516717325,2.2796352583586628,2.2796352583586628,2.2796352583586628,16.337386018237083,34.80243161094225,34.80243161094225,36.17021276595745,20.288753799392097,39.589665653495445,58.35866261398176,58.35866261398176,8.434650455927052,26.595744680851062,25.987841945288753,25.987841945288753,25.987841945288753,25.987841945288753,25.987841945288753,25.987841945288753,25.987841945288753,25.987841945288753,25.987841945288753,25.987841945288753,25.987841945288753,25.987841945288753,25.987841945288753,25.987841945288753,25.987841945288753,25.987841945288753,25.987841945288753,25.987841945288753,25.987841945288753,25.987841945288753,25.987841945288753,25.987841945288753,25.987841945288753,4.103343465045593,0.22796352583586624,38.06990881458967,38.06990881458967,38.06990881458967,38.06990881458967,26.367781155015198,56.306990881458965,56.306990881458965,56.306990881458965,56.306990881458965,56.306990881458965,56.306990881458965,56.306990881458965,32.29483282674772,30.69908814589666,25.227963525835868,25.227963525835868,25.227963525835868,25.227963525835868,25.227963525835868,25.227963525835868,25.227963525835868,25.227963525835868,26.595744680851062,26.595744680851062,26.595744680851062,26.595744680851062,26.595744680851062,26.595744680851062,26.595744680851062,26.595744680851062,26.595744680851062,26.595744680851062,26.595744680851062,26.595744680851062,26.595744680851062,26.595744680851062,26.595744680851062,25.303951367781153,25.303951367781153,25.303951367781153,25.303951367781153,25.303951367781153,25.303951367781153,25.303951367781153,25.303951367781153,25.303951367781153,25.303951367781153,0.4559270516717325,0.4559270516717325,0.22796352583586624,1.4437689969604863,1.4437689969604863,4.407294832826747,17.62917933130699,52.735562310030396,29.407294832826747,34.650455927051674,29.331306990881462,29.331306990881462,29.331306990881462,11.778115501519757,26.74772036474164,4.86322188449848,15.80547112462006,4.86322188449848,15.80547112462006,15.80547112462006,15.80547112462006,15.80547112462006,4.86322188449848,80.31914893617021,80.31914893617021,80.31914893617021,76.82370820668693,76.82370820668693,64.74164133738601,96.35258358662614,81.91489361702128,73.32826747720364,72.03647416413374,56.23100303951368,56.23100303951368,95.51671732522796,96.42857142857143,96.42857142857143,96.42857142857143,24.012158054711247,64.66565349544074,64.66565349544074,93.61702127659575,93.61702127659575,64.43768996960486,84.72644376899696,84.72644376899696,64.43768996960486,97.18844984802432,72.03647416413374,13.753799392097266,13.753799392097266,13.753799392097266,13.753799392097266,13.753799392097266,13.753799392097266,13.753799392097266,13.753799392097266,13.753799392097266,1.3677811550151975,1.3677811550151975,1.3677811550151975,1.3677811550151975,1.3677811550151975,1.3677811550151975,1.21580547112462,1.21580547112462,1.21580547112462,1.21580547112462,1.7477203647416413,0.8358662613981762,26.74772036474164,26.74772036474164,21.808510638297875	0,0,0,0,1,1,0,0,0,0,0,0,0,0,2,2,0,0,0,0,1,1,0,0,0,0,0,0,0,0,0,0,0,0,0,2,0,0,0,0,0,0,0,0,0,0,0,0,1,1,1,1,2,2,1,2,2,1,1,0,3,2,2,2,3,2,2,2,2,2,2,2,2,2,2,2,2,2,2,2,2,2,2,2,0,0,0,0,0,0,2,3,3,3,3,3,3,3,2,2,0,0,0,0,0,0,0,0,1,1,1,1,1,1,1,1,1,1,1,1,1,1,1,0,0,0,0,0,0,0,0,0,0,2,3,0,0,0,0,2,1,1,0,2,2,2,0,0,0,0,0,0,0,0,0,0,0,0,0,0,0,1,1,0,1,1,0,0,0,2,2,2,0,1,1,2,2,1,2,2,1,2,0,0,0,0,0,0,0,0,0,0,0,0,0,0,0,0,0,0,0,0,0,0,0,0,0	0,0,0,0,0,0,0,0,0,0,0,0,0,0,0,0,0,0,0,0,3,1,0,0,0,0,0,0,0,0,0,0,0,0,0,1,0,0,0,0,0,0,0,0,0,0,0,0,0,0,0,0,0,0,0,0,0,0,0,0,0,0,0,0,0,0,0,0,0,0,0,0,0,0,0,0,0,0,0,0,0,0,0,0,0,0,0,0,0,0,0,0,0,0,0,0,0,0,0,0,0,0,0,0,0,0,0,0,0,0,0,0,0,0,0,0,0,0,0,0,0,0,0,0,0,0,0,0,0,0,0,0,0,0,0,0,0,0,0,0,0,0,0,0,0,0,0,0,0,0,0,0,0,0,0,0,0,0,0,0,0,0,0,0,0,0,0,0,0,0,0,0,0,0,0,0,0,0,0,0,0,0,0,0,0,0,0,0,0,0,0,0,0,0,0,0,0,0,0,0,0,0,0,0,0,0,0	0,0,0,0,0,0,0,0,0,0,0,0,0,0,0,0,0,0,0,0,1,1,0,0,0,0,0,0,0,0,0,0,0,0,0,2,0,0,0,0,0,0,0,0,0,0,0,0,1,1,1,1,2,2,1,2,2,1,1,0,3,2,2,2,3,2,2,2,2,2,2,2,2,2,2,2,2,2,2,2,2,2,2,2,0,0,0,0,0,0,2,3,3,3,3,3,3,3,2,2,0,0,0,0,0,0,0,0,1,1,1,1,1,1,1,1,1,1,1,1,1,1,1,0,0,0,0,0,0,0,0,0,0,0,0,0,0,0,0,2,1,1,0,2,2,2,0,0,0,0,0,0,0,0,0,0,0,0,0,0,0,1,1,0,1,1,0,0,0,1,1,1,0,1,1,2,2,1,2,2,1,1,0,0,0,0,0,0,0,0,0,0,0,0,0,0,0,0,0,0,0,0,0,0,0,0,0
NESTED_BLOCK_DEPTH	7	7,4,3,57.14285714285714,42.857142857142854,0.75	1316	9.80243161094225,1.6717325227963524,20.592705167173253,26.82370820668693,23.404255319148938,59.49848024316109,1.21580547112462	1,1,0,0,0,4,0	0,0,0,0,0,0,0	0,0,0,0,0,2,0
CYCLE	6	6,1,5,16.666666666666664,83.33333333333334,5.0	1316	2.5835866261398177,0.22796352583586624,0.3799392097264438,1.21580547112462,60.48632218844985,26.74772036474164	0,0,0,0,0,0	0,0,0,0,0,0	0,0,0,0,0,0
ClASS_DATA_SHOULD_BE_PRIVATE	3	3,2,1,66.66666666666666,33.33333333333333,0.5	1316	7.674772036474165,76.67173252279636,0.303951367781155	1,0,0	0,0,0	0,0,0
REFUSED_PARENT_BEQUEST	11	11,4,7,36.36363636363637,63.63636363636363,1.75	1316	5.775075987841945,5.775075987841945,1.1398176291793314,4.86322188449848,16.869300911854104,8.814589665653495,9.042553191489363,94.30091185410335,17.17325227963526,7.446808510638298,0.303951367781155	1,2,0,1,0,3,1,2,0,0,0	0,0,0,0,0,0,0,0,0,0,0	0,0,0,0,0,1,0,1,0,0,0
MIDDLE_MAN	1	1,0,1,0.0,100.0,Infinity	1316	0.1519756838905775	1	0	0
SHOTGUN_SURGERY	30	30,21,9,70.0,30.0,0.42857142857142855	1316	13.829787234042554,13.905775075987842,14.513677811550153,28.191489361702125,20.060790273556233,20.060790273556233,22.264437689969604,32.142857142857146,14.817629179331307,57.97872340425532,78.72340425531915,78.419452887538,18.009118541033434,57.97872340425532,66.71732522796353,72.18844984802432,69.22492401215806,31.914893617021278,21.808510638297875,26.74772036474164,36.77811550151976,78.419452887538,85.56231003039514,93.54103343465046,72.49240121580547,63.981762917933125,56.23100303951368,57.97872340425532,1.7477203647416413,0.303951367781155	2,5,7,1,2,3,1,1,1,0,0,0,0,0,0,0,2,0,0,0,0,2,2,2,2,2,0,0,0,0	0,1,1,0,0,0,0,0,0,0,0,0,0,0,0,0,0,0,0,0,0,0,0,0,0,0,0,0,0,0	2,2,2,0,0,0,8,0,0,0,0,0,0,0,0,0,1,0,0,0,0,8,1,1,1,1,0,0,0,0
LONG_METHOD	2	2,0,2,0.0,100.0,Infinity	1316	1.1398176291793314,20.592705167173253	0,0	0,0	0,0
COMPLEX_CONDITION	8	8,4,4,50.0,50.0,1.0	1316	40.121580547112465,40.121580547112465,59.49848024316109,0.60790273556231,0.4559270516717325,0.8358662613981762,0.8358662613981762,0.8358662613981762	3,4,2,0,0,0,0,0	0,0,0,0,0,0,0,0	1,1,2,0,0,0,0,0
COMPLEX_METHOD	13	13,5,8,38.46153846153847,61.53846153846154,1.6	1316	6.003039513677812,16.185410334346503,23.17629179331307,20.592705167173253,20.592705167173253,20.592705167173253,20.592705167173253,20.592705167173253,16.109422492401215,26.671732522796354,38.60182370820669,23.404255319148938,23.17629179331307	3,1,1,0,0,0,0,0,0,0,0,0,2	0,0,0,0,0,0,0,0,0,0,0,0,0	1,1,0,0,0,0,0,0,0,0,0,0,0
GOD_CLASS	5	5,2,3,40.0,60.0,1.5	1316	24.848024316109424,20.592705167173253,20.592705167173253,38.22188449848024,1.7477203647416413	3,1,2,0,0	0,0,0,0,0	1,0,0,0,0
TRADITION_BREAKER	1	1,1,0,100.0,0.0,0.0	1316	76.44376899696049	2	0	1
