127,55,72,43.30708661417323,56.69291338582677,1.309090909090909
NESTED_BLOCK_DEPTH	22	22,7,15,31.818181818181817,68.18181818181817,2.142857142857143	440	1.8181818181818181,1.1363636363636365,10.454545454545453,32.27272727272727,1.1363636363636365,1.5909090909090908,19.090909090909093,4.090909090909091,4.772727272727273,4.772727272727273,6.363636363636363,11.59090909090909,50.227272727272734,0.45454545454545453,2.9545454545454546,22.5,22.727272727272727,53.40909090909091,24.09090909090909,46.590909090909086,50.227272727272734,18.409090909090907	1,1,8,11,0,1,3,4,4,4,6,7,3,0,1,3,1,6,0,0,4,0	0,0,0,0,0,0,0,0,0,0,0,0,0,0,0,0,0,0,0,0,0,0	0,0,4,4,0,2,1,2,2,2,2,2,1,0,0,1,1,2,0,0,1,0
FEATURE_ENVY	32	32,11,21,34.375,65.625,1.9090909090909092	440	0.6818181818181818,4.545454545454546,3.4090909090909087,9.545454545454547,0.45454545454545453,2.0454545454545454,2.0454545454545454,2.0454545454545454,0.6818181818181818,3.8636363636363633,4.545454545454546,4.772727272727273,5.227272727272727,0.9090909090909091,3.8636363636363633,4.772727272727273,2.0454545454545454,53.18181818181819,50.227272727272734,7.5,5.681818181818182,27.954545454545453,27.954545454545453,10.454545454545453,52.5,42.95454545454545,53.18181818181819,50.227272727272734,53.40909090909091,46.590909090909086,20.454545454545457,15.0	1,0,0,0,1,3,2,4,1,4,4,5,6,0,7,6,2,7,3,8,0,6,7,0,6,0,8,4,9,0,0,0	0,0,0,0,0,0,0,0,0,1,0,0,0,0,0,0,1,0,0,0,0,0,0,0,0,0,0,0,0,0,0,0	0,0,0,0,0,1,2,1,2,2,2,2,2,0,1,2,1,2,1,2,0,2,2,0,2,0,2,1,2,0,0,0
DATA_CLASS	6	6,0,6,0.0,100.0,Infinity	440	0.9090909090909091,0.6818181818181818,0.6818181818181818,2.9545454545454546,5.681818181818182,18.181818181818183	1,1,1,2,4,0	0,0,0,1,1,0	0,0,0,1,2,0
SHOTGUN_SURGERY	8	8,4,4,50.0,50.0,1.0	440	4.545454545454546,4.772727272727273,0.6818181818181818,17.954545454545453,39.77272727272727,42.04545454545455,19.545454545454547,52.04545454545455	0,0,1,3,0,0,0,2	0,0,0,0,0,0,0,0	0,0,0,1,0,0,0,1
COMPLEX_METHOD	23	23,10,13,43.47826086956522,56.52173913043478,1.3	440	2.0454545454545454,1.1363636363636365,10.227272727272728,0.9090909090909091,4.318181818181818,4.090909090909091,6.59090909090909,5.0,46.81818181818182,10.909090909090908,15.0,22.5,24.09090909090909,2.5,22.727272727272727,39.77272727272727,39.77272727272727,27.27272727272727,47.95454545454545,37.5,46.590909090909086,46.81818181818182,46.81818181818182	1,0,3,1,4,4,6,1,5,7,1,3,1,0,1,0,0,0,0,0,0,4,6	0,0,0,0,0,0,0,0,0,0,0,0,0,0,0,0,0,0,0,0,0,0,0	0,0,1,2,2,2,2,1,2,2,0,1,0,0,1,0,0,0,0,0,0,2,2
DEAD_CODE	3	3,2,1,66.66666666666666,33.33333333333333,0.5	440	19.090909090909093,10.681818181818182,53.40909090909091	5,0,2	0,0,0	3,0,2
REFUSED_PARENT_BEQUEST	5	5,4,1,80.0,20.0,0.25	440	2.727272727272727,15.0,10.454545454545453,15.0,15.454545454545453	1,0,0,0,0	0,0,0,0,0	0,0,0,0,0
GOD_CLASS	5	5,3,2,60.0,40.0,0.6666666666666666	440	1.1363636363636365,9.090909090909092,39.77272727272727,6.363636363636363,23.40909090909091	1,1,0,0,0	0,0,0,0,0	0,0,0,0,0
ClASS_DATA_SHOULD_BE_PRIVATE	13	13,11,2,84.61538461538461,15.384615384615385,0.18181818181818182	440	2.9545454545454546,0.45454545454545453,42.04545454545455,42.04545454545455,42.04545454545455,22.727272727272727,42.04545454545455,53.86363636363637,53.40909090909091,53.86363636363637,53.86363636363637,53.86363636363637,53.86363636363637	2,0,0,0,0,0,0,4,4,4,4,4,4	1,0,0,0,0,0,0,0,0,0,0,0,0	1,0,0,0,0,0,0,2,2,2,2,2,2
BRAIN_METHOD	6	6,2,4,33.33333333333333,66.66666666666666,2.0	440	4.090909090909091,1.5909090909090908,6.363636363636363,22.5,46.590909090909086,18.409090909090907	4,1,6,2,0,0	0,0,0,0,0,0	2,0,2,1,0,0
MIDDLE_MAN	1	1,0,1,0.0,100.0,Infinity	440	0.9090909090909091	1	0	0
LONG_METHOD	2	2,1,1,50.0,50.0,1.0	440	0.45454545454545453,46.36363636363636	0,0	0,0	0,0
COMPLEX_CONDITION	1	1,0,1,0.0,100.0,Infinity	440	22.272727272727273	1	0	0
