150,50,100,33.33333333333333,66.66666666666666,2.0
DEAD_CODE	11	11,7,4,63.63636363636363,36.36363636363637,0.5714285714285714	188	1.5957446808510638,7.446808510638298,1.0638297872340425,53.191489361702125,55.85106382978723,37.234042553191486,55.85106382978723,53.72340425531915,68.08510638297872,1.5957446808510638,40.95744680851064	0,2,0,0,0,0,0,0,1,0,0	0,1,0,0,0,0,0,0,0,0,0	0,1,0,0,0,0,0,0,0,0,0
DATA_CLASS	20	20,7,13,35.0,65.0,1.8571428571428572	188	1.5957446808510638,1.5957446808510638,1.5957446808510638,7.9787234042553195,7.9787234042553195,52.12765957446809,52.12765957446809,50.0,22.340425531914892,21.808510638297875,7.9787234042553195,7.9787234042553195,59.04255319148937,36.702127659574465,28.191489361702125,12.76595744680851,28.191489361702125,28.191489361702125,59.04255319148937,59.04255319148937	0,1,1,3,3,7,7,3,4,4,0,0,1,0,0,1,0,0,0,2	0,0,0,1,1,2,2,1,0,0,0,0,0,0,0,0,0,0,0,0	0,0,0,3,3,3,3,1,2,2,0,0,0,0,0,0,0,0,0,0
COMPLEX_CONDITION	8	8,0,8,0.0,100.0,Infinity	188	1.0638297872340425,1.5957446808510638,1.0638297872340425,2.6595744680851063,6.914893617021277,15.957446808510639,5.851063829787234,1.0638297872340425	0,0,0,0,0,1,0,0	0,1,0,0,0,1,0,0	0,0,0,0,0,1,0,0
BRAIN_METHOD	9	9,0,9,0.0,100.0,Infinity	188	2.6595744680851063,2.6595744680851063,6.914893617021277,21.27659574468085,3.1914893617021276,1.0638297872340425,25.53191489361702,2.127659574468085,56.91489361702128	0,0,0,2,1,0,0,1,2	0,0,0,0,0,0,0,0,0	0,0,0,1,0,0,0,0,1
COMPLEX_METHOD	19	19,6,13,31.57894736842105,68.42105263157895,2.1666666666666665	188	2.6595744680851063,2.6595744680851063,6.914893617021277,21.27659574468085,11.170212765957446,13.829787234042554,1.0638297872340425,59.04255319148937,59.04255319148937,27.659574468085108,27.659574468085108,26.063829787234045,18.085106382978726,56.91489361702128,18.085106382978726,10.638297872340425,10.638297872340425,10.638297872340425,10.638297872340425	0,0,0,2,2,0,0,2,3,7,8,0,1,2,1,1,0,0,2	0,0,0,0,0,1,0,0,0,0,0,0,0,0,0,0,0,0,0	0,0,0,1,1,0,0,0,0,0,0,0,0,1,0,0,0,0,0
LONG_METHOD	9	9,0,9,0.0,100.0,Infinity	188	2.6595744680851063,2.6595744680851063,6.914893617021277,21.27659574468085,11.170212765957446,1.0638297872340425,25.53191489361702,40.95744680851064,2.127659574468085	0,0,0,2,2,0,0,3,1	0,0,0,0,0,0,0,1,0	0,0,0,1,1,0,0,1,0
NESTED_BLOCK_DEPTH	27	27,8,19,29.629629629629626,70.37037037037037,2.375	188	2.6595744680851063,2.6595744680851063,6.914893617021277,2.127659574468085,2.127659574468085,21.27659574468085,11.170212765957446,2.127659574468085,2.127659574468085,2.127659574468085,13.829787234042554,13.829787234042554,1.0638297872340425,59.04255319148937,59.04255319148937,17.02127659574468,27.659574468085108,27.659574468085108,26.063829787234045,66.48936170212765,66.48936170212765,47.340425531914896,40.95744680851064,15.425531914893616,26.595744680851062,10.638297872340425,68.61702127659575	0,0,0,0,0,2,2,0,0,0,0,0,0,2,3,0,7,8,0,0,0,0,2,1,0,0,0	0,0,0,0,0,0,0,0,0,0,0,1,0,0,0,0,0,0,0,0,0,0,1,0,0,0,0	0,0,0,0,0,1,1,0,0,0,0,0,0,0,0,0,0,0,0,0,0,0,1,0,0,0,0
FEATURE_ENVY	29	29,10,19,34.48275862068966,65.51724137931035,1.9	188	4.25531914893617,2.6595744680851063,2.6595744680851063,28.191489361702125,7.446808510638298,29.78723404255319,59.04255319148937,20.74468085106383,20.74468085106383,59.04255319148937,1.5957446808510638,1.5957446808510638,1.5957446808510638,1.5957446808510638,30.851063829787233,10.638297872340425,1.0638297872340425,59.04255319148937,66.48936170212765,66.48936170212765,35.638297872340424,3.1914893617021276,18.085106382978726,1.5957446808510638,59.04255319148937,25.53191489361702,69.14893617021278,1.5957446808510638,38.82978723404255	3,0,0,4,1,2,2,1,1,3,0,1,1,1,1,1,1,6,0,0,0,1,1,1,7,0,0,0,0	0,0,0,0,0,0,0,0,0,0,0,0,0,0,0,0,0,0,0,0,0,0,0,0,0,0,0,0,0	1,0,0,2,0,2,0,0,0,0,0,0,0,0,0,0,0,0,0,0,0,0,0,0,0,0,0,0,0
SHOTGUN_SURGERY	13	13,8,5,61.53846153846154,38.46153846153847,0.625	188	77.6595744680851,7.9787234042553195,36.17021276595745,40.42553191489361,53.191489361702125,40.42553191489361,42.02127659574468,42.02127659574468,28.191489361702125,10.638297872340425,28.191489361702125,68.61702127659575,42.02127659574468	5,1,6,3,2,4,1,2,0,0,0,7,0	0,0,1,1,1,0,0,0,0,0,0,0,0	2,0,2,3,1,3,0,0,0,0,0,3,0
MIDDLE_MAN	2	2,1,1,50.0,50.0,1.0	188	53.72340425531915,69.14893617021278	2,0	1,0	1,0
GOD_CLASS	2	2,2,0,100.0,0.0,0.0	188	36.702127659574465,69.14893617021278	0,0	0,0	0,0
LARGE_CLASS	1	1,1,0,100.0,0.0,0.0	188	26.595744680851062	0	0	0
