274,82,192,29.927007299270077,70.07299270072993,2.341463414634146
DEAD_CODE	18	18,1,17,5.555555555555555,94.44444444444444,17.0	1989	0.1508295625942685,0.1508295625942685,0.10055304172951231,0.10055304172951231,7.18954248366013,7.088989441930618,0.10055304172951231,36.902966314731025,36.902966314731025,31.825037707390646,14.429361488185016,0.1508295625942685,30.015082956259427,14.328808446455504,0.2513826043237808,1.7596782302664655,5.530417295123177,0.301659125188537	0,1,0,0,0,1,0,1,1,1,1,1,1,1,1,0,0,1	0,0,0,0,0,0,0,0,0,0,0,0,0,0,0,0,0,0	0,0,0,0,0,1,0,0,0,0,0,0,0,0,0,0,0,0
DATA_CLASS	64	64,8,56,12.5,87.5,7.0	1989	0.10055304172951231,0.9552538964303671,0.20110608345902461,3.770739064856712,34.89190548014077,4.022121669180493,2.6646556058320763,4.122674710910005,0.904977375565611,0.9552538964303671,16.189039718451482,3.971845148315736,18.803418803418804,17.094017094017094,10.35696329813977,0.1508295625942685,0.301659125188537,0.10055304172951231,0.10055304172951231,0.10055304172951231,4.072398190045249,0.10055304172951231,2.6143790849673203,0.8547008547008548,0.20110608345902461,0.7541478129713424,0.1508295625942685,6.837606837606838,0.10055304172951231,7.6923076923076925,0.10055304172951231,52.79034690799397,52.79034690799397,0.10055304172951231,0.20110608345902461,0.1508295625942685,52.79034690799397,19.859225741578683,36.24937154348919,31.52337858220211,55.957767722473605,51.4831573655103,45.2991452991453,0.6535947712418301,0.7541478129713424,1.3574660633484164,1.0558069381598794,0.7541478129713424,1.1060834590246356,1.3071895424836601,1.3071895424836601,0.904977375565611,1.7094017094017095,2.262443438914027,0.904977375565611,1.608848667672197,53.14228255404726,30.165912518853695,30.165912518853695,16.99346405228758,7.440925087983912,36.24937154348919,7.3403720462544,0.20110608345902461	1,2,0,0,0,5,2,2,1,0,1,1,1,3,2,0,0,0,1,0,0,1,1,1,1,0,1,0,0,1,0,2,2,1,1,1,2,0,0,0,0,0,0,1,3,1,0,0,1,1,1,1,1,1,1,1,0,0,0,0,1,1,1,0	0,1,0,1,1,1,1,1,0,0,0,0,0,0,1,0,0,0,0,0,0,0,0,0,0,0,0,0,0,0,0,0,0,0,0,0,0,0,0,0,0,0,0,0,1,0,0,0,0,0,0,0,0,0,0,0,0,0,0,0,0,0,0,0	2,1,0,0,0,2,1,1,0,0,0,0,0,1,1,0,0,0,0,0,0,0,0,0,0,0,0,0,0,0,0,1,1,0,0,0,1,0,0,0,0,0,0,1,1,0,0,0,0,0,0,0,0,0,0,0,0,0,0,0,0,0,0,0
FEATURE_ENVY	130	130,41,89,31.538461538461537,68.46153846153847,2.1707317073170733	1989	0.1508295625942685,0.1508295625942685,98.7430869783811,10.005027652086476,3.0165912518853695,4.022121669180493,0.4524886877828055,0.20110608345902461,16.138763197586727,2.865761689291101,2.865761689291101,0.10055304172951231,1.608848667672197,16.138763197586727,3.971845148315736,2.3127199597787835,2.262443438914027,0.10055304172951231,16.138763197586727,0.5027652086475616,4.424333836098542,4.57516339869281,14.630467571644044,4.323780794369029,8.094519859225741,0.4524886877828055,4.323780794369029,3.2679738562091507,14.077425842131724,10.809451985922575,0.2513826043237808,0.20110608345902461,8.094519859225741,5.731523378582202,0.10055304172951231,0.2513826043237808,21.367521367521366,5.379587732528909,24.43438914027149,1.7596782302664655,0.2513826043237808,11.91553544494721,0.1508295625942685,11.91553544494721,16.59125188536953,73.25289089994972,0.20110608345902461,25.590749120160883,12.468577174459528,6.586224233283057,2.865761689291101,25.590749120160883,19.50729009552539,0.1508295625942685,0.1508295625942685,57.41578682755153,57.41578682755153,0.10055304172951231,0.10055304172951231,16.189039718451482,61.739567621920564,20.71392659627954,57.41578682755153,57.41578682755153,0.10055304172951231,35.39467068878834,1.0558069381598794,0.1508295625942685,0.7038712921065863,24.18300653594771,10.85972850678733,0.7541478129713424,0.5530417295123178,0.5027652086475616,0.5027652086475616,0.40221216691804923,0.10055304172951231,17.69733534439417,16.189039718451482,45.95274007038713,66.9683257918552,8.647561588738059,64.75615887380593,64.75615887380593,0.10055304172951231,39.66817496229261,38.96430367018603,73.25289089994972,45.60080442433384,19.50729009552539,36.450477626948214,47.863247863247864,34.087481146304675,41.07591754650578,22.875816993464053,41.07591754650578,28.707893413775764,19.50729009552539,64.75615887380593,64.75615887380593,19.557566616390147,0.1508295625942685,0.10055304172951231,0.10055304172951231,0.10055304172951231,0.2513826043237808,0.2513826043237808,17.39567621920563,38.96430367018603,17.194570135746606,17.194570135746606,16.33986928104575,39.66817496229261,73.25289089994972,45.60080442433384,55.957767722473605,14.831573655103067,45.95274007038713,16.540975364504774,7.038712921065862,34.841628959276015,61.739567621920564,57.41578682755153,57.41578682755153,41.07591754650578,17.39567621920563,17.194570135746606,16.33986928104575,16.23931623931624,66.9683257918552	1,1,1,1,1,3,1,0,3,2,3,1,1,4,1,0,0,0,6,1,0,0,1,2,2,0,3,1,1,1,1,1,3,1,1,1,4,1,1,1,1,1,1,2,1,2,1,0,0,1,1,0,1,1,1,2,2,1,1,1,1,0,3,3,1,1,0,1,1,1,1,0,0,0,0,0,0,0,2,1,1,1,1,1,1,2,1,3,1,2,1,0,0,0,0,1,1,3,2,2,0,1,1,1,1,1,2,1,2,2,3,1,3,5,2,0,0,2,0,0,2,2,5,5,2,2,5,2,0,2	0,0,0,0,0,0,0,0,0,0,0,0,0,0,0,0,0,0,0,0,0,0,0,0,0,0,0,0,0,0,0,0,0,0,0,0,0,0,0,0,0,0,0,0,0,0,0,0,0,0,0,0,0,0,0,0,0,0,0,0,0,0,0,0,0,0,0,0,0,0,0,0,0,0,0,0,0,0,0,0,0,0,0,0,0,0,0,0,0,0,0,0,0,0,0,0,0,0,0,0,0,0,0,0,0,0,0,0,0,0,0,0,0,0,0,0,0,0,0,0,0,0,0,0,0,0,0,0,0,0	0,0,0,0,0,0,0,0,0,0,0,0,0,0,0,0,0,0,0,0,0,0,7,0,0,0,0,0,0,0,0,0,0,0,0,0,7,0,0,0,0,0,0,0,0,0,0,0,0,0,0,0,0,0,0,0,0,0,0,0,0,0,0,0,0,0,0,0,0,0,0,0,0,0,0,0,0,0,0,0,0,0,0,0,0,0,0,0,0,0,0,0,0,0,0,0,0,0,0,0,0,0,0,0,0,0,0,0,0,0,0,0,0,0,0,0,0,0,0,0,1,0,0,0,0,0,0,0,0,0
SHOTGUN_SURGERY	24	24,15,9,62.5,37.5,0.6	1989	0.6535947712418301,3.9215686274509802,83.66013071895425,3.971845148315736,3.971845148315736,8.647561588738059,70.03519356460532,70.03519356460532,12.770236299648063,83.66013071895425,81.95072900955253,52.38813474107592,70.03519356460532,27.65208647561589,85.97285067873304,18.50175967823027,41.6289592760181,13.373554550025139,13.373554550025139,46.757164404223225,27.65208647561589,0.1508295625942685,0.20110608345902461,4.625439919557567	1,1,1,2,3,1,2,3,3,2,0,4,5,1,2,0,0,0,0,0,2,1,3,4	0,0,0,0,0,0,0,0,0,0,0,0,0,0,0,0,0,0,0,0,0,0,1,1	0,1,0,0,0,0,0,0,1,0,0,2,0,0,1,0,0,0,0,0,0,2,2,2
MIDDLE_MAN	19	19,11,8,57.89473684210527,42.10526315789473,0.7272727272727273	1989	0.1508295625942685,0.1508295625942685,8.345902463549521,0.40221216691804923,4.323780794369029,30.668677727501258,5.681246857717446,43.18753142282554,56.91302161890397,43.08697838109603,48.56711915535445,81.95072900955253,51.181498240321766,80.54298642533936,0.35193564605329314,24.43438914027149,49.97486173956762,49.97486173956762,37.405731523378584	1,0,1,0,0,0,1,0,0,0,0,0,0,2,1,0,2,2,0	0,0,0,0,0,0,0,0,0,0,0,0,0,0,0,0,0,0,0	0,0,1,0,0,0,0,0,0,0,0,0,0,1,0,0,1,1,0
NESTED_BLOCK_DEPTH	7	7,1,6,14.285714285714285,85.71428571428571,6.0	1989	3.117144293614882,14.881850175967823,14.881850175967823,14.881850175967823,0.10055304172951231,0.10055304172951231,3.619909502262444	1,3,4,6,0,0,0	0,0,0,0,0,0,0	0,0,0,0,0,0,0
ClASS_DATA_SHOULD_BE_PRIVATE	2	2,0,2,0.0,100.0,Infinity	1989	7.038712921065862,7.038712921065862	2,3	0,0	0,0
REFUSED_PARENT_BEQUEST	10	10,5,5,50.0,50.0,1.0	1989	22.22222222222222,23.076923076923077,56.05832076420312,0.20110608345902461,1.6591251885369533,81.34741075917546,58.32076420311715,56.05832076420312,57.16440422322775,40.824534942182	6,1,1,1,1,2,9,2,0,0	0,0,0,0,0,0,0,0,0,0	15,0,0,0,0,1,15,0,0,0
