488,167,321,34.22131147540984,65.77868852459017,1.9221556886227544
DATA_CLASS	114	114,57,57,50.0,50.0,1.0	2751	0.14540167211922936,0.2544529262086514,0.07270083605961468,9.014903671392222,1.9629225736095965,4.980007270083606,0.2544529262086514,9.45110868774991,0.07270083605961468,11.595783351508542,2.7262813522355507,14.540167211922936,0.14540167211922936,1.0905125408942202,1.4176663031624863,1.7811704834605597,2.762631770265358,0.14540167211922936,0.6543075245365322,0.43620501635768816,0.1817520901490367,71.61032351872046,71.61032351872046,73.79134860050891,35.95056343147946,46.0196292257361,46.0196292257361,46.0196292257361,82.1519447473646,53.98037077426391,58.851326790258085,50.74518356961105,50.74518356961105,13.994910941475828,34.13304252998909,73.90039985459833,4.543802253725918,42.093784078516904,1.4176663031624863,40.458015267175576,39.94910941475827,39.40385314431116,42.093784078516904,92.65721555797892,35.87786259541985,68.7749909123955,58.70592511813886,60.85059978189749,66.44856415848783,66.73936750272628,40.56706652126499,40.56706652126499,39.840058160668846,42.27553616866594,39.94910941475827,39.94910941475827,76.19047619047619,2.9443838604143946,37.04107597237368,7.270083605961468,29.51653944020356,8.215194474736458,53.98037077426391,25.372591784805525,24.572882588149763,32.6790258087968,25.44529262086514,0.07270083605961468,62.95892402762632,24.645583424209377,11.523082515448928,97.12831697564522,2.6172300981461287,2.9443838604143946,2.9443838604143946,15.73973100690658,1.817520901490367,0.7633587786259541,1.8538713195201746,17.37549981824791,17.37549981824791,17.37549981824791,15.630679752817159,14.394765539803709,22.791712104689203,22.391857506361323,19.483824063976733,7.451835696110505,7.451835696110505,7.015630679752817,81.89749182115594,0.5089058524173028,95.74700109051254,71.10141766630316,50.19992729916394,20.974191203198835,33.33333333333333,30.570701563067974,30.570701563067974,67.7571792075609,32.715376226826606,18.393311523082513,25.481643038894948,24.718284260268995,24.2457288258815,0.6906579425663395,0.6906579425663395,45.58342420937841,0.6906579425663395,3.380588876772083,1.2359142130134497,1.8902217375499817,0.6906579425663395,53.98037077426391	1,1,0,0,2,1,0,3,0,3,0,0,0,1,0,1,2,1,0,0,0,2,2,2,4,2,2,2,2,0,2,0,0,0,1,2,0,0,1,0,0,0,0,2,0,2,3,7,2,2,2,2,0,3,1,0,5,1,0,1,0,3,0,4,0,0,0,0,2,2,1,6,0,0,0,5,1,1,0,0,0,2,0,0,0,0,0,0,0,2,2,0,2,2,0,0,2,0,0,2,0,0,0,0,0,1,1,0,1,0,0,0,0,2	0,0,0,0,0,0,0,0,0,0,0,0,0,0,0,0,0,0,0,0,0,1,1,1,1,1,1,1,1,0,0,0,0,0,0,0,0,0,0,0,0,0,0,0,0,0,0,0,0,0,0,0,0,0,0,0,1,0,0,0,0,0,0,0,0,0,0,0,0,1,0,1,0,0,0,0,0,0,0,0,0,1,0,0,0,0,0,0,0,0,0,0,0,0,0,0,0,0,0,0,0,0,0,0,0,0,0,0,0,0,0,0,0,0	0,0,0,0,1,0,0,1,0,1,0,0,0,1,0,0,1,0,0,0,0,1,1,1,2,1,1,1,1,0,1,0,0,0,0,1,0,0,0,0,0,0,0,1,0,1,1,4,1,1,1,1,0,1,1,0,3,1,0,0,0,1,0,2,0,0,0,0,1,1,0,3,0,0,0,2,0,1,0,0,0,1,0,0,0,0,0,0,0,1,1,0,1,1,0,0,1,0,0,1,0,0,0,0,0,0,0,0,0,0,0,0,0,1
DEAD_CODE	66	66,12,54,18.181818181818183,81.81818181818183,4.5	2751	0.14540167211922936,1.9992729916394039,1.9992729916394039,0.5816066884769174,6.8338785896037795,7.851690294438386,1.381315885132679,0.9087604507451835,1.7084696474009449,1.1268629589240278,0.7633587786259541,0.4725554343874954,15.88513267902581,23.11886586695747,0.2544529262086514,0.2544529262086514,0.2544529262086514,0.2544529262086514,6.8338785896037795,18.75681570338059,23.66412213740458,8.687749909123955,1.8902217375499817,0.39985459832788073,0.39985459832788073,0.10905125408942204,0.10905125408942204,46.31043256997455,46.0196292257361,0.4725554343874954,0.4725554343874954,0.3635041802980734,0.3635041802980734,0.07270083605961468,0.07270083605961468,46.74663758633224,1.6357688113413305,0.43620501635768816,0.43620501635768816,11.704834605597965,1.054162122864413,3.598691384950927,24.427480916030532,4.0348964013086155,0.14540167211922936,13.013449654671028,12.395492548164304,9.960014540167212,0.07270083605961468,0.3271537622682661,0.07270083605961468,19.95637949836423,63.21337695383497,63.21337695383497,63.21337695383497,63.21337695383497,0.10905125408942204,0.10905125408942204,0.7633587786259541,0.5816066884769174,2.9443838604143946,5.888767720828789,0.10905125408942204,91.89385677935297,0.9814612868047983,0.3271537622682661	1,1,2,0,1,1,0,0,1,1,0,0,1,0,0,0,0,0,2,1,1,0,7,0,0,0,0,1,3,1,1,0,0,0,1,4,0,0,0,1,0,0,2,1,0,1,0,0,1,0,1,0,4,2,2,2,0,0,0,0,0,0,1,2,0,0	0,0,0,0,0,0,0,0,0,0,0,0,0,0,0,0,0,0,0,0,0,0,0,0,0,0,0,1,1,0,0,0,0,0,0,0,0,0,0,0,0,0,0,0,0,2,0,0,0,0,0,0,0,0,0,0,0,0,0,0,0,0,0,0,0,0	0,0,0,0,0,0,0,0,0,1,0,0,1,0,0,0,0,0,1,1,1,0,3,0,0,0,0,1,1,0,0,0,0,0,0,1,0,0,0,0,0,0,1,1,0,1,0,0,0,0,0,0,1,1,1,1,0,0,0,0,0,0,0,1,0,0
COMPLEX_CONDITION	15	15,2,13,13.333333333333334,86.66666666666667,6.5	2751	1.1632133769538349,8.287895310796074,25.263540530716107,6.143220647037441,0.6179571065067249,1.817520901490367,1.7448200654307526,0.07270083605961468,1.2722646310432568,0.1817520901490367,0.1817520901490367,56.524900036350424,0.07270083605961468,19.95637949836423,6.4340239912759	0,1,2,0,0,0,0,0,0,0,0,1,0,1,0	0,0,0,0,0,0,0,0,0,0,0,0,0,0,0	0,1,1,0,0,0,0,0,0,0,0,1,0,1,0
NESTED_BLOCK_DEPTH	57	57,13,44,22.807017543859647,77.19298245614034,3.3846153846153846	2751	33.26063249727372,0.21810250817884408,33.26063249727372,6.942929843693202,0.9451108687749908,1.0905125408942202,18.575063613231553,6.942929843693202,2.1810250817884405,0.21810250817884408,6.143220647037441,4.180298073427845,58.342420937840785,0.6179571065067249,5.05270810614322,17.77535441657579,0.1817520901490367,0.2908033442384587,0.3635041802980734,2.7989821882951653,2.399127589967285,0.6179571065067249,2.399127589967285,1.817520901490367,1.7448200654307526,1.7448200654307526,0.07270083605961468,35.33260632497274,1.2722646310432568,31.443111595783353,28.02617230098146,0.3271537622682661,2.399127589967285,3.7804434750999634,6.506724827335514,0.7997091966557615,1.2722646310432568,0.21810250817884408,0.10905125408942204,89.31297709923665,1.817520901490367,0.1817520901490367,10.468920392584515,0.3635041802980734,0.07270083605961468,0.4725554343874954,0.8360596146855689,19.95637949836423,45.147219193020725,6.4340239912759,66.70301708469647,13.231552162849871,13.231552162849871,80.37077426390404,18.356961105052708,5.089058524173027,3.380588876772083	2,1,3,2,3,1,0,3,0,0,0,0,0,0,3,4,0,1,1,2,1,0,2,0,0,0,1,0,0,0,4,0,0,3,2,0,0,0,0,7,1,1,2,0,0,0,0,2,0,0,2,0,0,1,2,0,0	0,0,0,0,0,0,0,0,0,0,0,0,0,0,0,0,0,0,0,0,0,0,0,0,0,0,0,0,0,0,0,0,0,0,0,0,0,0,0,0,0,0,0,0,0,0,0,0,0,0,0,0,0,0,0,0,0	1,0,1,0,1,0,0,0,0,0,0,0,0,0,2,2,0,0,0,1,0,0,0,0,0,0,0,0,0,0,2,0,0,3,2,0,0,0,0,1,0,0,2,0,0,0,0,1,0,0,1,0,0,1,1,0,0
COMPLEX_METHOD	29	29,4,25,13.793103448275861,86.20689655172413,6.25	2751	1.0905125408942202,0.8360596146855689,0.2908033442384587,1.1268629589240278,26.2450018175209,0.9451108687749908,12.286441294074882,2.1810250817884405,6.143220647037441,0.6179571065067249,1.9265721555797892,1.9265721555797892,1.817520901490367,1.7448200654307526,1.7448200654307526,0.07270083605961468,35.33260632497274,1.2722646310432568,31.443111595783353,17.993456924754632,2.399127589967285,6.506724827335514,82.29734641948382,9.669211195928753,0.3635041802980734,0.07270083605961468,0.4725554343874954,6.4340239912759,3.380588876772083	0,0,0,1,3,3,0,0,0,0,1,2,0,0,0,1,0,0,0,3,0,2,6,1,0,0,0,0,0	0,0,0,0,0,0,0,0,0,0,0,0,0,0,0,0,0,0,0,0,0,0,0,0,0,0,0,0,0	0,0,0,0,2,1,0,0,0,0,0,0,0,0,0,0,0,0,0,1,0,2,2,1,0,0,0,0,0
FEATURE_ENVY	117	117,37,80,31.62393162393162,68.37606837606837,2.1621621621621623	2751	5.343511450381679,5.343511450381679,5.343511450381679,0.2544529262086514,1.7811704834605597,1.5630679752817158,1.8538713195201746,1.054162122864413,58.342420937840785,0.39985459832788073,0.3271537622682661,0.3271537622682661,0.43620501635768816,0.43620501635768816,0.9451108687749908,17.77535441657579,3.5623409669211195,0.1817520901490367,0.14540167211922936,1.9992729916394039,0.07270083605961468,0.1817520901490367,45.5470737913486,39.840058160668846,0.3271537622682661,0.14540167211922936,0.1817520901490367,0.3271537622682661,0.3271537622682661,39.840058160668846,35.478007997091964,35.405307161032354,35.87786259541985,35.986913849509264,16.64849145765176,2.9443838604143946,2.9443838604143946,1.1995637949836424,2.9080334423845873,1.5267175572519083,1.7811704834605597,27.662668120683385,0.6543075245365322,0.1817520901490367,27.735368956743002,26.39040348964013,44.82006543075245,0.14540167211922936,0.14540167211922936,0.3271537622682661,0.6906579425663395,62.05016357688113,0.5816066884769174,0.6179571065067249,4.6528535078153395,23.954925481643038,2.035623409669211,48.0552526354053,10.614322064703744,2.0719738276990185,2.0719738276990185,0.7633587786259541,8.32424572882588,5.597964376590331,9.196655761541257,53.871319520174474,55.39803707742639,9.196655761541257,6.761177753544166,14.467466375863323,0.5089058524173028,13.340603416939295,57.215557978916756,1.054162122864413,3.816793893129771,3.0534351145038165,0.7997091966557615,9.960014540167212,9.960014540167212,9.233006179571065,21.08324245728826,0.39985459832788073,0.2908033442384587,0.2544529262086514,0.21810250817884408,0.7997091966557615,0.3271537622682661,0.14540167211922936,0.9814612868047983,0.9814612868047983,24.79098509632861,19.95637949836423,20.974191203198835,32.6790258087968,27.662668120683385,30.570701563067974,67.24827335514358,13.231552162849871,9.45110868774991,13.231552162849871,37.04107597237368,30.570701563067974,73.39149400218102,49.036713922210104,8.32424572882588,8.178844056706652,67.7571792075609,0.43620501635768816,0.43620501635768816,47.58269720101781,0.10905125408942204,60.341693929480186,0.9814612868047983,0.9814612868047983,6.615776081424936,5.888767720828789,5.888767720828789	3,4,6,0,1,1,0,2,0,1,0,0,1,2,0,4,1,0,1,0,0,1,0,1,0,0,0,0,0,2,1,1,0,2,0,1,0,0,1,1,2,1,1,0,0,0,9,1,1,1,1,3,1,0,5,4,0,3,2,0,1,0,3,0,1,3,6,0,1,0,1,0,4,1,0,0,0,0,0,0,0,1,0,0,1,1,1,0,1,1,1,2,0,0,2,0,3,0,0,0,0,4,8,0,0,0,8,1,2,0,1,5,0,0,3,0,0	0,0,0,0,0,0,0,0,0,0,0,0,0,0,0,0,0,0,0,0,0,0,0,0,0,0,0,0,0,0,0,0,0,0,0,0,0,0,0,0,0,0,0,0,0,0,0,0,0,0,0,0,0,0,0,0,0,0,0,0,0,0,0,0,0,0,0,0,0,0,0,0,0,0,0,0,0,0,0,0,0,0,0,0,0,0,0,0,0,0,0,0,0,0,0,0,0,0,0,0,0,0,0,0,0,0,0,0,0,0,0,0,0,0,0,0,0	0,0,0,0,0,19,0,9,0,0,0,0,0,0,0,2,0,0,0,0,0,1,0,0,0,0,0,0,0,0,1,1,0,1,0,0,0,0,1,0,2,0,0,0,0,0,19,0,0,0,0,1,0,0,3,3,0,13,1,0,0,0,1,0,0,2,13,0,1,0,0,0,13,0,0,0,0,0,0,0,0,0,0,0,0,1,18,0,1,1,1,1,0,0,0,0,2,0,0,0,0,4,6,0,0,0,13,0,0,0,0,4,0,0,18,0,0
ClASS_DATA_SHOULD_BE_PRIVATE	4	4,1,3,25.0,75.0,3.0	2751	16.97564521992003,1.0178117048346056,0.5089058524173028,67.7571792075609	1,1,0,2	0,0,0,0	0,0,0,1
SHOTGUN_SURGERY	34	34,26,8,76.47058823529412,23.52941176470588,0.3076923076923077	2751	1.0178117048346056,56.415848782260994,3.8894947291893853,41.0759723736823,41.18502362777172,39.94910941475827,79.57106506724827,52.271901126862964,32.31552162849873,32.31552162849873,24.93638676844784,8.724100327153762,62.522719011268634,16.030534351145036,10.723373318793167,32.6790258087968,13.231552162849871,9.887313704107598,19.95637949836423,24.79098509632861,22.391857506361323,67.7571792075609,3.962195565249001,3.962195565249001,13.231552162849871,58.66957470010905,9.378407851690294,80.84332969829153,44.965467102871685,22.391857506361323,5.125408942202835,24.79098509632861,31.988367866230462,27.044711014176663	2,0,0,0,2,0,2,3,0,0,0,0,2,1,2,0,0,0,1,0,0,2,0,0,0,2,0,2,0,0,3,0,0,0	0,0,0,0,0,0,0,0,0,0,0,0,0,0,0,0,0,0,0,0,0,0,0,0,0,0,0,0,0,0,0,0,0,0	1,0,0,0,1,0,1,1,0,0,0,0,1,0,4,0,0,0,1,0,0,1,0,0,0,1,0,1,0,0,1,0,0,0
BRAIN_METHOD	6	6,0,6,0.0,100.0,Infinity	2751	6.652126499454744,2.1810250817884405,3.8894947291893853,0.6179571065067249,5.05270810614322,49.43656852053799	0,0,0,0,3,6	0,0,0,0,0,0	0,0,0,0,2,3
CYCLE	6	6,3,3,50.0,50.0,1.0	2751	11.3776808433297,11.3776808433297,15.230825154489278,56.415848782260994,56.415848782260994,56.415848782260994	1,0,0,0,0,0	0,0,0,0,0,0	1,0,0,0,0,0
MIDDLE_MAN	7	7,3,4,42.857142857142854,57.14285714285714,1.3333333333333333	2751	56.852053798618684,0.9814612868047983,0.14540167211922936,23.66412213740458,8.724100327153762,22.42820792439113,1.4903671392221012	2,0,1,0,1,0,3	1,0,0,0,0,0,0	1,0,0,0,0,0,1
LONG_PARAM	27	27,5,22,18.51851851851852,81.48148148148148,4.4	2751	0.14540167211922936,0.07270083605961468,0.5089058524173028,1.817520901490367,0.07270083605961468,5.125408942202835,14.176663031624864,0.8724100327153763,0.6543075245365322,0.14540167211922936,24.463831334060345,0.07270083605961468,0.6906579425663395,9.269356597600872,15.230825154489278,0.7633587786259541,0.5452562704471101,0.2544529262086514,0.14540167211922936,0.14540167211922936,0.1817520901490367,39.294801890221734,7.597237368229735,0.9814612868047983,3.8894947291893853,0.9814612868047983,6.361323155216285	0,0,0,1,0,0,1,0,0,0,0,0,0,2,1,1,0,0,0,0,0,1,1,0,1,0,0	0,0,0,0,0,0,0,0,0,0,0,0,0,0,0,0,0,0,0,0,0,0,0,0,0,0,0	0,0,0,1,0,0,1,0,0,0,0,0,0,2,1,1,0,0,0,0,0,1,1,0,1,0,0
REFUSED_PARENT_BEQUEST	4	4,2,2,50.0,50.0,1.0	2751	3.816793893129771,3.816793893129771,66.70301708469647,66.77571792075608	1,0,2,2	0,0,0,0	0,0,1,1
GOD_CLASS	2	2,2,0,100.0,0.0,0.0	2751	13.231552162849871,67.7571792075609	0,2	0,0	0,1
