192,88,104,45.83333333333333,54.166666666666664,1.1818181818181819
DEAD_CODE	51	51,25,26,49.01960784313725,50.98039215686274,1.04	802	0.24937655860349126,0.24937655860349126,0.24937655860349126,0.24937655860349126,0.24937655860349126,0.24937655860349126,0.24937655860349126,0.3740648379052369,6.234413965087282,0.4987531172069825,6.982543640897755,0.24937655860349126,22.31920199501247,47.13216957605985,47.13216957605985,47.13216957605985,0.24937655860349126,52.867830423940156,6.733167082294264,0.24937655860349126,0.3740648379052369,13.092269326683292,1.8703241895261846,8.603491271820449,2.6184538653366585,0.6234413965087282,72.06982543640898,72.06982543640898,72.06982543640898,72.06982543640898,72.06982543640898,95.38653366583542,70.69825436408978,95.76059850374065,31.17206982543641,95.38653366583542,95.76059850374065,95.76059850374065,17.45635910224439,88.02992518703242,88.02992518703242,88.02992518703242,58.22942643391521,3.2418952618453867,34.03990024937656,0.997506234413965,41.39650872817955,41.39650872817955,34.03990024937656,56.733167082294266,74.18952618453865	0,0,0,1,1,1,1,0,2,1,0,1,4,2,2,1,0,2,1,0,0,2,0,1,0,1,2,2,2,1,1,4,1,4,2,4,4,6,0,1,1,1,2,0,4,0,2,2,2,2,3	0,0,0,0,0,0,0,0,0,0,0,0,0,0,0,0,0,0,0,0,0,1,0,0,0,0,1,1,1,1,1,1,1,1,1,1,1,1,1,1,1,1,1,0,0,0,0,0,0,0,0	0,0,0,0,0,0,0,0,2,0,0,0,4,1,1,1,0,1,0,0,0,1,0,0,0,0,1,1,1,1,1,2,1,2,1,2,2,2,0,1,1,1,1,0,2,0,1,1,1,1,2
COMPLEX_METHOD	2	2,1,1,50.0,50.0,1.0	802	2.9925187032418954,58.22942643391521	2,2	1,1	1,1
NESTED_BLOCK_DEPTH	7	7,4,3,57.14285714285714,42.857142857142854,0.75	802	2.9925187032418954,0.4987531172069825,2.369077306733167,25.81047381546135,58.22942643391521,35.03740648379052,29.925187032418954	2,0,3,0,2,2,2	1,0,0,1,1,0,0	1,0,1,0,1,1,1
MIDDLE_MAN	7	7,1,6,14.285714285714285,85.71428571428571,6.0	802	0.4987531172069825,2.369077306733167,0.8728179551122194,0.24937655860349126,0.24937655860349126,6.109725685785536,97.50623441396509	0,0,1,0,0,2,4	0,0,0,0,0,0,1	0,0,0,0,0,1,2
DATA_CLASS	45	45,23,22,51.11111111111111,48.888888888888886,0.9565217391304348	802	0.4987531172069825,0.4987531172069825,2.369077306733167,2.7431421446384037,0.7481296758104738,3.366583541147132,24.189526184538654,57.98004987531172,46.758104738154614,1.2468827930174564,0.24937655860349126,0.24937655860349126,0.4987531172069825,6.733167082294264,18.07980049875312,0.24937655860349126,0.3740648379052369,0.3740648379052369,39.52618453865336,23.316708229426432,0.24937655860349126,83.29177057356608,63.71571072319202,63.71571072319202,38.5286783042394,83.29177057356608,63.71571072319202,63.71571072319202,62.34413965087282,72.06982543640898,72.06982543640898,72.06982543640898,72.06982543640898,86.15960099750623,30.798004987531176,30.798004987531176,26.932668329177055,31.67082294264339,30.92269326683292,30.92269326683292,87.03241895261846,50.49875311720699,54.3640897755611,32.54364089775561,35.03740648379052	0,1,0,2,3,1,2,3,0,0,1,1,1,2,5,0,1,1,5,0,0,2,2,2,2,2,2,2,2,2,2,2,2,4,2,2,0,2,2,4,4,5,4,2,2	0,0,0,0,1,0,1,1,0,0,0,0,0,1,0,0,0,0,0,0,0,1,1,1,1,1,1,1,1,1,1,1,1,1,1,1,1,1,1,1,1,1,1,1,0	0,1,0,1,1,2,1,2,0,0,0,0,1,1,2,0,2,2,2,0,0,1,1,1,1,1,1,1,1,1,1,1,1,2,1,1,0,1,1,2,2,2,2,1,1
FEATURE_ENVY	52	52,16,36,30.76923076923077,69.23076923076923,2.25	802	0.997506234413965,3.865336658354115,4.239401496259352,2.119700748129676,0.24937655860349126,2.119700748129676,10.099750623441397,2.493765586034913,0.3740648379052369,5.985037406483791,3.6159600997506236,22.568578553615957,6.483790523690773,82.41895261845387,12.094763092269327,20.82294264339152,0.24937655860349126,4.114713216957606,24.3142144638404,56.85785536159601,6.733167082294264,17.206982543640898,16.708229426433917,8.478802992518704,20.32418952618454,20.32418952618454,18.82793017456359,15.087281795511224,37.03241895261846,26.184538653366584,25.311720698254366,26.55860349127182,0.24937655860349126,0.6234413965087282,0.24937655860349126,0.24937655860349126,0.6234413965087282,72.06982543640898,81.4214463840399,32.54364089775561,32.54364089775561,28.92768079800499,52.7431421446384,56.733167082294266,82.41895261845387,46.758104738154614,91.2718204488778,47.256857855361595,38.5286783042394,56.35910224438903,82.41895261845387,0.997506234413965	1,2,5,1,0,0,3,1,1,1,1,9,3,2,5,3,0,1,3,1,1,0,0,1,2,3,0,1,3,3,1,2,1,1,1,1,2,2,2,2,2,2,3,2,2,2,4,4,2,2,5,0	0,0,0,0,0,0,0,0,0,0,0,0,1,0,0,0,0,0,0,0,0,0,0,0,0,0,0,0,1,1,1,0,0,0,0,0,0,1,1,1,1,1,1,1,0,0,0,0,0,0,0,0	0,2,2,0,0,0,1,0,0,2,0,4,2,2,2,2,0,0,2,0,0,0,0,0,0,0,0,0,1,0,0,1,0,0,0,0,0,1,1,1,1,1,1,1,1,1,2,2,1,1,2,0
GOD_CLASS	4	4,2,2,50.0,50.0,1.0	802	1.99501246882793,31.17206982543641,80.29925187032418,82.91770573566085	3,3,4,4	0,0,0,0	1,1,2,2
LONG_PARAM	16	16,8,8,50.0,50.0,1.0	802	3.7406483790523692,3.7406483790523692,3.7406483790523692,13.216957605985039,13.216957605985039,16.58354114713217,3.4912718204488775,3.4912718204488775,46.758104738154614,46.758104738154614,46.758104738154614,46.758104738154614,46.758104738154614,46.758104738154614,46.758104738154614,46.758104738154614	0,0,0,1,0,0,0,0,1,1,2,1,1,2,1,2	0,0,0,0,0,0,0,0,1,1,1,1,1,1,0,0	0,0,0,0,0,0,0,0,1,1,1,1,1,1,1,1
SHOTGUN_SURGERY	4	4,4,0,100.0,0.0,0.0	802	67.45635910224439,86.15960099750623,91.2718204488778,93.01745635910224	2,2,4,4	1,0,0,0	1,1,2,2
COMPLEX_CONDITION	4	4,4,0,100.0,0.0,0.0	802	29.052369077306732,35.03740648379052,4.239401496259352,96.00997506234414	1,1,0,2	1,0,0,0	1,1,0,2
