65,13,52,20.0,80.0,4.0
DEAD_CODE	28	28,1,27,3.571428571428571,96.42857142857143,27.0	436	0.6880733944954129,3.669724770642202,3.669724770642202,3.669724770642202,1.6055045871559634,1.6055045871559634,2.293577981651376,3.669724770642202,0.9174311926605505,1.834862385321101,0.9174311926605505,0.9174311926605505,0.6880733944954129,0.6880733944954129,3.669724770642202,3.669724770642202,1.3761467889908259,5.045871559633028,2.293577981651376,4.81651376146789,4.81651376146789,8.027522935779817,11.697247706422019,1.3761467889908259,0.6880733944954129,2.522935779816514,6.192660550458716,8.027522935779817	0,1,1,1,0,0,1,1,0,1,0,0,0,0,0,0,0,1,0,1,1,0,0,1,1,0,0,0	0,0,0,0,0,0,1,1,0,0,0,0,0,0,0,0,0,0,0,0,0,0,0,0,0,0,0,0	0,1,1,1,0,0,1,1,0,1,0,0,0,0,0,0,0,1,0,1,1,0,0,0,0,0,0,0
DATA_CLASS	19	19,4,15,21.052631578947366,78.94736842105263,3.75	436	0.9174311926605505,1.146788990825688,1.3761467889908259,0.45871559633027525,2.522935779816514,5.045871559633028,5.045871559633028,5.045871559633028,5.045871559633028,5.045871559633028,19.495412844036696,2.064220183486239,19.495412844036696,50.0,16.51376146788991,1.3761467889908259,1.3761467889908259,2.064220183486239,2.064220183486239	1,0,0,0,0,0,0,0,0,0,0,1,0,1,0,0,0,0,0	0,0,0,0,0,0,0,0,0,0,0,0,0,0,0,0,0,0,0	0,0,0,0,0,0,0,0,0,0,0,0,0,1,0,0,0,0,0
MIDDLE_MAN	9	9,2,7,22.22222222222222,77.77777777777779,3.5	436	8.027522935779817,18.11926605504587,0.45871559633027525,7.568807339449542,7.568807339449542,11.46788990825688,1.834862385321101,19.26605504587156,58.48623853211009	5,1,0,1,2,1,1,0,2	0,0,0,0,0,0,0,0,0	2,0,0,0,0,0,0,0,1
SHOTGUN_SURGERY	7	7,5,2,71.42857142857143,28.57142857142857,0.4	436	88.9908256880734,2.064220183486239,4.587155963302752,88.9908256880734,11.46788990825688,54.12844036697248,55.96330275229357	1,0,1,2,0,0,0	0,1,1,0,0,0,0	0,0,0,0,0,0,0
FEATURE_ENVY	2	2,1,1,50.0,50.0,1.0	436	1.146788990825688,19.495412844036696	0,1	0,0	0,1
