569,175,394,30.755711775043938,69.24428822495607,2.2514285714285713
COMPLEX_CONDITION	18	18,0,18,0.0,100.0,Infinity	1551	0.3223726627981947,0.8381689232753062,1.9987105093488073,2.5789813023855577,4.31979368149581,9.800128949065119,13.797549967762734,0.6447453255963894,3.2882011605415857,10.186976144422953,5.415860735009671,18.82656350741457,23.081882656350743,0.19342359767891684,0.19342359767891684,2.5789813023855577,0.1289490651192779,3.67504835589942	1,3,0,0,0,0,0,0,0,0,0,0,0,0,0,0,0,1	0,0,0,0,0,0,0,0,0,0,0,0,0,0,0,0,0,1	1,1,0,0,0,0,0,0,0,0,0,0,0,0,0,0,0,1
MIDDLE_MAN	19	19,10,9,52.63157894736842,47.368421052631575,0.9	1551	0.2578981302385558,0.2578981302385558,0.6447453255963894,0.9671179883945842,10.251450676982591,50.03223726627982,35.46099290780142,15.28046421663443,22.63056092843327,25.145067698259187,32.9464861379755,13.47517730496454,34.107027724049,34.107027724049,1.4184397163120568,1.4184397163120568,1.4184397163120568,4.25531914893617,25.145067698259187	0,0,3,1,1,0,0,2,3,3,4,0,2,2,3,4,6,0,4	0,0,1,0,0,0,0,1,1,1,1,0,1,1,0,0,0,0,0	0,0,1,0,0,0,0,1,2,1,2,0,1,1,0,0,0,0,1
DATA_CLASS	50	50,17,33,34.0,66.0,1.9411764705882353	1551	0.7092198581560284,0.8381689232753062,0.7092198581560284,0.8381689232753062,0.8381689232753062,0.8381689232753062,0.19342359767891684,1.5473887814313347,1.160541586073501,1.2894906511927788,1.5473887814313347,18.117343649258544,99.93552546744036,12.18568665377176,2.256608639587363,1.8697614442295292,65.892972275951,7.414571244358478,2.643455834945197,30.56092843326886,2.0631850419084463,15.667311411992262,15.667311411992262,7.865892972275951,15.860735009671178,15.860735009671178,0.3223726627981947,65.44165054803352,31.721470019342355,3.9329464861379755,4.835589941972921,4.835589941972921,2.0631850419084463,5.093488072211477,79.69052224371373,2.9658284977433915,6.834300451321727,7.0277240490006445,13.217279174725983,1.9987105093488073,36.7504835589942,36.7504835589942,36.7504835589942,7.092198581560284,36.7504835589942,36.7504835589942,36.7504835589942,15.667311411992262,0.19342359767891684,4.190844616376531	2,2,3,3,2,4,0,5,1,1,2,8,10,3,1,0,0,1,0,0,1,1,1,0,0,0,1,0,0,0,0,0,0,3,2,0,0,0,0,0,0,0,0,0,2,2,2,2,1,0	1,1,0,0,0,1,0,0,0,0,1,1,1,1,0,0,0,0,0,0,0,0,0,0,0,0,0,0,0,0,0,0,0,1,1,0,0,0,0,0,0,0,0,0,0,0,0,0,0,0	1,1,2,2,1,2,0,2,0,0,1,4,5,1,0,0,0,0,0,0,0,0,0,0,0,0,0,0,0,0,0,0,0,1,1,0,0,0,0,0,0,0,0,0,1,1,1,1,0,0
FEATURE_ENVY	173	173,43,130,24.85549132947977,75.14450867052022,3.0232558139534884	1551	0.8381689232753062,0.8381689232753062,0.8381689232753062,0.7092198581560284,0.7092198581560284,0.7092198581560284,0.7092198581560284,0.8381689232753062,0.8381689232753062,0.8381689232753062,0.19342359767891684,0.19342359767891684,0.19342359767891684,0.19342359767891684,0.3868471953578337,0.2578981302385558,98.1947130883301,1.9342359767891684,1.8052869116698904,2.0631850419084463,0.19342359767891684,33.591231463571894,9.477756286266924,2.643455834945197,0.5802707930367506,13.99097356544165,2.385557704706641,9.606705351386202,33.591231463571894,4.448742746615087,0.1289490651192779,0.3223726627981947,21.598968407479045,8.123791102514506,0.9026434558349452,4.126370083816893,1.4184397163120568,0.7092198581560284,31.59252095422308,2.0631850419084463,6.5764023210831715,21.598968407479045,98.1947130883301,30.883301096067058,6.5764023210831715,14.764667956157318,42.29529335912315,11.734364925854287,98.1947130883301,11.218568665377177,10.767246937459705,38.039974210186976,0.1289490651192779,0.3223726627981947,5.415860735009671,5.415860735009671,5.157962604771115,10.831721470019342,8.63958736299162,7.994842037395229,10.31592520954223,13.281753707285624,11.863313990973566,60.28368794326241,1.6763378465506125,54.54545454545454,49.8388136686009,16.50548033526757,27.724049000644747,27.595099935525468,0.3868471953578337,32.9464861379755,1.9342359767891684,0.19342359767891684,0.3223726627981947,0.3223726627981947,0.2578981302385558,1.160541586073501,32.9464861379755,65.892972275951,65.892972275951,25.983236621534495,25.53191489361702,63.37846550612508,18.504190844616378,0.2578981302385558,6.898774983881367,7.0277240490006445,7.0277240490006445,0.4513217279174726,16.569954867827207,16.892327530625405,0.19342359767891684,0.5157962604771116,64.92585428755642,0.19342359767891684,15.79626047711154,18.697614442295293,0.2578981302385558,62.604771115409406,11.283043197936815,25.983236621534495,19.471308833010962,22.37266279819471,18.697614442295293,2.9658284977433915,3.1592520954223082,4.061895551257253,5.996131528046422,5.609284332688588,5.609284332688588,2.5145067698259185,2.127659574468085,0.2578981302385558,0.1289490651192779,0.3868471953578337,0.4513217279174726,0.4513217279174726,0.5157962604771116,3.0303030303030303,13.47517730496454,64.02321083172147,64.02321083172147,64.02321083172147,5.867182462927143,0.2578981302385558,3.2237266279819474,5.093488072211477,2.192134107027724,11.476466795615732,5.093488072211477,11.02514506769826,6.5764023210831715,3.0303030303030303,32.9464861379755,32.9464861379755,14.571244358478403,13.926499032882012,2.9658284977433915,4.771115409413282,0.2578981302385558,0.2578981302385558,5.802707930367505,0.9671179883945842,36.7504835589942,36.7504835589942,73.24306898774984,51.77304964539007,23.081882656350743,23.081882656350743,0.1289490651192779,0.1289490651192779,17.923920051579625,78.01418439716312,77.94970986460348,28.820116054158607,34.107027724049,25.918762088974855,14.571244358478403,7.672469374597034,31.076724693745973,13.926499032882012,10.89619600257898,1.4829142488716958,3.8684719535783367,51.77304964539007,1.160541586073501,11.669890393294649,3.610573823339781,11.540941328175371,11.540941328175371,36.7504835589942,0.3223726627981947	3,2,2,2,3,3,3,2,2,4,0,0,0,1,1,1,1,0,0,3,0,3,4,2,0,11,0,7,4,3,1,1,2,3,1,1,1,1,0,0,1,3,7,0,2,0,1,0,8,0,0,0,0,0,1,2,0,0,0,0,1,0,0,1,1,1,5,1,0,0,1,3,0,1,1,1,1,1,3,0,0,0,0,1,2,0,1,0,0,1,1,1,1,1,3,1,1,2,0,1,1,1,0,1,3,1,1,1,3,0,1,0,0,0,0,1,1,1,1,2,1,0,0,0,3,1,1,4,5,0,5,0,3,0,4,4,4,2,1,0,1,1,1,1,0,0,3,1,2,3,1,1,0,2,2,0,0,0,1,0,4,2,0,0,0,2,0,0,0,0,0,2,0	1,1,1,0,0,0,0,0,0,0,0,0,0,0,0,0,0,0,1,0,0,0,1,1,0,1,0,0,0,0,0,0,0,0,0,0,0,0,1,0,0,0,0,0,0,0,0,0,0,0,0,0,0,0,0,0,0,0,0,0,0,0,0,0,0,0,0,0,0,0,0,1,0,0,0,0,0,0,0,0,0,0,0,0,0,0,0,0,0,0,0,0,0,0,0,0,0,0,0,0,0,0,0,0,0,0,0,0,0,0,0,0,0,0,0,0,0,0,0,1,0,0,0,0,0,0,0,1,1,0,0,0,0,0,0,0,0,0,0,0,0,0,0,0,0,0,0,0,0,0,0,0,0,0,0,0,0,0,0,0,0,0,0,0,0,0,0,0,0,0,0,0,0	1,1,1,1,1,1,1,1,1,1,0,0,0,0,0,0,1,0,0,1,0,1,2,1,0,5,0,3,1,1,0,0,0,1,0,0,0,0,0,0,0,0,3,0,0,0,0,0,3,0,0,0,0,0,0,0,0,0,0,0,1,0,0,0,0,0,2,0,0,0,0,1,0,0,0,0,0,0,1,0,0,0,0,0,1,0,0,0,0,0,0,0,0,0,1,0,0,0,0,0,0,0,0,0,0,0,0,0,1,0,0,0,0,0,0,0,0,0,0,1,1,0,0,0,1,0,0,1,2,0,1,0,1,0,1,1,2,1,0,0,0,0,0,0,0,0,1,0,0,0,0,0,0,1,1,0,0,0,1,0,2,1,0,0,0,0,0,0,0,0,0,1,0
SHOTGUN_SURGERY	53	53,26,27,49.056603773584904,50.943396226415096,1.0384615384615385	1551	0.3223726627981947,0.7092198581560284,0.8381689232753062,0.8381689232753062,3.67504835589942,19.987105093488072,0.1289490651192779,7.35009671179884,6.189555125725339,6.189555125725339,7.994842037395229,2.0631850419084463,61.18633139909736,64.02321083172147,40.68343004513218,1.2894906511927788,33.26885880077369,32.62411347517731,49.77433913604126,22.952933591231464,15.409413281753706,61.18633139909736,67.63378465506125,3.9329464861379755,2.5145067698259185,2.192134107027724,63.2495164410058,66.60219213410703,11.669890393294649,84.7840103159252,43.97163120567376,4.964539007092199,61.18633139909736,70.2127659574468,64.02321083172147,14.571244358478403,4.190844616376531,3.9974210186976147,78.20760799484204,36.7504835589942,33.26885880077369,50.1611863313991,22.308188265635074,14.506769825918761,14.506769825918761,1.4829142488716958,78.20760799484204,55.38362346872985,45.71244358478401,1.160541586073501,70.8575112830432,64.66795615731786,70.2127659574468	1,3,2,4,1,4,0,1,1,2,4,1,3,3,1,1,3,1,0,0,1,0,0,3,0,0,1,1,0,7,1,2,4,0,5,2,0,0,2,0,5,0,0,2,2,0,2,2,0,0,1,0,5	0,0,0,1,0,0,0,0,0,0,0,0,0,0,0,0,0,0,0,0,0,0,0,0,0,0,0,0,0,0,0,0,0,0,0,0,0,0,0,0,0,0,0,0,0,0,0,0,0,0,0,0,0	0,2,1,2,0,2,0,106,0,0,106,1,2,0,0,0,0,0,0,0,0,0,0,1,0,0,0,1,0,3,1,1,2,0,0,1,0,0,1,0,0,0,0,1,1,0,1,1,0,0,1,0,2
DEAD_CODE	126	126,32,94,25.396825396825395,74.60317460317461,2.9375	1551	0.1289490651192779,0.7092198581560284,0.7092198581560284,2.9658284977433915,0.1289490651192779,1.6763378465506125,1.8697614442295292,1.0315925209542232,1.0315925209542232,1.0315925209542232,1.0315925209542232,4.126370083816893,1.9987105093488073,1.9987105093488073,0.19342359767891684,0.19342359767891684,36.87943262411347,0.19342359767891684,0.3223726627981947,0.1289490651192779,0.1289490651192779,10.251450676982591,0.2578981302385558,0.5157962604771116,0.5802707930367506,18.181818181818183,2.192134107027724,2.192134107027724,0.2578981302385558,2.0631850419084463,0.6447453255963894,20.24500322372663,32.62411347517731,32.62411347517731,32.62411347517731,32.62411347517731,36.7504835589942,36.7504835589942,26.434558349451965,31.59252095422308,38.555770470664086,2.321083172147002,2.0631850419084463,2.0631850419084463,2.0631850419084463,20.309477756286267,13.862024500322374,0.3223726627981947,0.2578981302385558,0.4513217279174726,28.562217923920052,28.949065119277883,26.24113475177305,27.659574468085108,0.8381689232753062,20.76079948420374,29.72275950999355,29.72275950999355,0.9026434558349452,0.3868471953578337,0.19342359767891684,1.9987105093488073,11.734364925854287,11.734364925854287,5.48033526756931,1.3539651837524178,1.3539651837524178,33.01096067053514,0.19342359767891684,57.31785944551901,2.5789813023855577,0.19342359767891684,0.4513217279174726,0.2578981302385558,0.19342359767891684,0.19342359767891684,0.19342359767891684,20.63185041908446,2.7079303675048356,0.4513217279174726,3.9974210186976147,0.8381689232753062,5.609284332688588,59.12314635718891,3.0303030303030303,3.0947775628626695,3.0947775628626695,2.9658284977433915,0.4513217279174726,0.3223726627981947,0.4513217279174726,2.5145067698259185,80.20631850419085,98.96840747904577,95.80915538362346,35.20309477756286,35.20309477756286,35.20309477756286,2.256608639587363,27.9819471308833,1.8697614442295292,0.6447453255963894,52.4822695035461,4.190844616376531,2.7079303675048356,36.7504835589942,36.7504835589942,36.7504835589942,36.7504835589942,36.7504835589942,2.9013539651837523,31.59252095422308,33.01096067053514,32.688588007736946,11.669890393294649,4.190844616376531,4.190844616376531,4.190844616376531,11.669890393294649,11.669890393294649,43.907156673114116,36.7504835589942,1.4829142488716958,1.160541586073501,1.160541586073501,2.5789813023855577	1,1,1,1,0,0,1,0,0,0,0,5,2,2,1,1,1,1,1,0,1,5,0,3,0,0,0,0,0,0,0,0,0,0,0,0,10,10,4,0,1,0,0,0,0,1,0,0,0,1,0,0,0,0,0,0,0,0,0,0,0,0,1,1,1,0,0,0,1,2,0,0,1,1,0,0,0,1,0,1,0,0,0,1,0,1,1,1,1,0,0,0,2,2,1,0,0,0,1,0,1,1,4,0,0,0,0,0,0,0,0,1,0,0,1,0,0,0,1,1,1,1,0,0,0,0	0,0,0,0,0,0,0,0,0,0,0,1,2,1,0,0,0,0,0,0,0,0,0,0,0,0,0,0,0,0,0,0,0,0,0,0,2,1,1,1,1,0,0,0,0,0,0,0,0,0,0,0,0,0,0,0,0,0,0,0,0,0,0,0,0,0,0,0,0,0,0,0,0,0,0,0,0,0,0,0,0,0,0,1,0,0,0,0,0,0,0,0,1,0,0,0,0,0,0,0,0,0,0,0,0,0,0,0,0,0,0,0,0,0,0,0,0,0,0,0,0,0,0,0,0,0	0,1,1,1,0,0,0,0,0,0,0,5,1,1,0,0,1,0,0,0,0,2,0,1,0,0,0,0,0,0,0,0,0,0,0,0,5,5,2,0,1,0,0,0,0,0,0,0,0,0,0,0,0,0,0,0,0,0,0,0,0,0,0,0,0,0,0,0,0,2,0,0,0,0,0,0,0,1,0,0,0,0,0,1,0,1,1,1,1,0,0,0,1,2,1,0,0,0,1,0,0,0,2,0,0,0,0,0,0,0,0,1,0,0,1,0,0,0,1,1,1,1,0,0,0,0
ClASS_DATA_SHOULD_BE_PRIVATE	14	14,0,14,0.0,100.0,Infinity	1551	0.8381689232753062,3.67504835589942,7.479045776918117,0.7736943907156674,2.0631850419084463,2.0631850419084463,29.33591231463572,29.33591231463572,1.4184397163120568,17.988394584139265,0.3223726627981947,2.7724049000644744,5.802707930367505,15.151515151515152	3,5,3,1,4,6,2,3,1,1,1,1,4,7	0,0,1,0,0,0,0,0,0,0,0,0,1,0	2,2,1,0,0,0,0,0,0,0,0,2,2,2
REFUSED_PARENT_BEQUEST	6	6,1,5,16.666666666666664,83.33333333333334,5.0	1551	1.4184397163120568,3.1592520954223082,3.1592520954223082,1.4829142488716958,65.82849774339135,32.9464861379755	1,3,2,1,1,2	0,1,1,0,0,0	1,1,1,1,0,1
NESTED_BLOCK_DEPTH	46	46,13,33,28.26086956521739,71.73913043478261,2.5384615384615383	1551	3.67504835589942,9.477756286266924,8.188265635074146,14.829142488716956,2.385557704706641,5.029013539651837,2.5145067698259185,5.029013539651837,0.1289490651192779,0.1289490651192779,0.19342359767891684,29.78723404255319,0.7736943907156674,27.466150870406192,0.19342359767891684,1.0315925209542232,0.1289490651192779,26.24113475177305,5.415860735009671,11.863313990973566,27.466150870406192,0.19342359767891684,0.8381689232753062,54.48098001289491,50.54803352675693,54.48098001289491,26.692456479690524,3.610573823339781,19.600257898130238,2.8368794326241136,2.8368794326241136,0.3868471953578337,2.256608639587363,8.252740167633785,0.1289490651192779,30.303030303030305,2.127659574468085,13.862024500322374,15.667311411992262,20.309477756286267,1.160541586073501,26.692456479690524,0.5802707930367506,0.3223726627981947,0.3223726627981947,0.3223726627981947	0,6,4,9,0,2,1,3,1,0,0,0,0,2,1,1,0,0,0,1,3,1,1,1,0,2,1,1,0,2,3,1,1,0,1,0,0,2,2,1,0,2,0,0,0,0	0,1,1,1,0,0,0,0,0,0,0,1,0,0,0,0,0,0,0,0,0,0,0,0,0,0,0,0,0,0,0,0,0,0,0,0,0,0,0,0,0,0,0,0,0,0	0,3,2,4,0,0,0,0,0,0,0,0,0,0,0,0,0,0,0,0,0,0,0,0,0,0,0,0,0,0,0,0,1,0,0,0,0,1,1,0,0,0,0,0,0,0
COMPLEX_METHOD	8	8,4,4,50.0,50.0,1.0	1551	1.160541586073501,5.157962604771115,2.385557704706641,3.1592520954223082,2.127659574468085,0.3223726627981947,0.3223726627981947,0.3223726627981947	0,4,1,0,0,0,0,0	0,1,0,0,0,0,0,0	0,2,0,0,0,0,0,0
BRAIN_METHOD	2	2,1,1,50.0,50.0,1.0	1551	0.4513217279174726,0.3223726627981947	0,0	0,0	0,0
TRADITION_BREAKER	1	1,0,1,0.0,100.0,Infinity	1551	0.7736943907156674	1	0	0
GOD_CLASS	14	14,9,5,64.28571428571429,35.714285714285715,0.5555555555555556	1551	19.600257898130238,38.87814313346228,59.96131528046421,65.63507414571245,61.18633139909736,60.28368794326241,4.061895551257253,71.88910380399743,86.20245003223727,19.213410702772403,15.473887814313347,9.864603481624759,23.66215344938749,42.81108961960026	6,0,3,0,9,1,3,2,2,2,4,0,4,0	0,0,0,0,0,0,0,0,0,0,0,0,0,0	3,0,1,0,4,1,2,1,1,1,2,0,2,0
CYCLE	33	33,16,17,48.484848484848484,51.515151515151516,1.0625	1551	2.0631850419084463,2.643455834945197,64.02321083172147,9.735654416505481,1.3539651837524178,9.735654416505481,29.65828497743391,49.90328820116054,34.107027724049,1.5473887814313347,1.5473887814313347,1.6763378465506125,1.6763378465506125,0.3868471953578337,0.3868471953578337,64.99032882011605,54.02965828497743,2.7079303675048356,54.02965828497743,2.7079303675048356,11.476466795615732,64.99032882011605,64.02321083172147,24.758220502901356,11.476466795615732,11.476466795615732,11.476466795615732,48.03352675693101,4.190844616376531,4.190844616376531,45.71244358478401,20.76079948420374,55.57704706640877	1,0,0,0,1,0,0,0,0,0,0,0,0,0,0,0,0,0,0,0,0,0,0,0,0,0,0,1,0,0,1,0,0	0,0,0,0,0,0,0,0,0,0,0,0,0,0,0,0,0,0,0,0,0,0,0,0,0,0,0,0,0,0,0,0,0	0,0,0,0,0,0,0,0,0,0,0,0,0,0,0,0,0,0,0,0,0,0,0,0,0,0,0,1,0,0,1,0,0
LONG_PARAM	4	4,1,3,25.0,75.0,3.0	1551	3.610573823339781,14.119922630560927,0.1289490651192779,1.5473887814313347	0,1,0,0	0,0,0,0	0,1,0,0
LONG_METHOD	2	2,2,0,100.0,0.0,0.0	1551	22.437137330754354,0.3223726627981947	0,0	0,0	0,0
