18,5,13,27.77777777777778,72.22222222222221,2.6
DEAD_CODE	4	4,1,3,25.0,75.0,3.0	183	2.185792349726776,7.103825136612022,7.103825136612022,20.21857923497268	0,0,0,1	0,0,0,0	0,0,0,1
ClASS_DATA_SHOULD_BE_PRIVATE	2	2,0,2,0.0,100.0,Infinity	183	56.284153005464475,56.284153005464475	0,0	0,0	0,0
DATA_CLASS	9	9,2,7,22.22222222222222,77.77777777777779,3.5	183	56.284153005464475,56.284153005464475,63.387978142076506,7.650273224043716,67.21311475409836,4.918032786885246,4.918032786885246,20.21857923497268,16.939890710382514	0,0,4,1,0,1,1,2,0	0,0,0,0,0,0,0,0,0	0,0,2,1,0,1,1,1,0
FEATURE_ENVY	2	2,1,1,50.0,50.0,1.0	183	10.92896174863388,26.775956284153008	2,4	0,0	1,1
SHOTGUN_SURGERY	1	1,1,0,100.0,0.0,0.0	183	12.568306010928962	0	0	0
