160,114,46,71.25,28.749999999999996,0.40350877192982454
COMPLEX_METHOD	8	8,3,5,37.5,62.5,1.6666666666666667	251	8.764940239043826,29.482071713147413,29.482071713147413,29.482071713147413,29.482071713147413,91.23505976095618,62.15139442231076,62.15139442231076	1,1,1,2,2,0,0,0	1,0,0,0,0,0,0,0	0,0,0,0,0,0,0,0
DATA_CLASS	23	23,8,15,34.78260869565217,65.21739130434783,1.875	251	18.326693227091635,18.326693227091635,18.326693227091635,18.326693227091635,18.326693227091635,9.9601593625498,9.9601593625498,18.326693227091635,18.326693227091635,18.326693227091635,18.326693227091635,18.326693227091635,9.9601593625498,9.9601593625498,47.808764940239044,41.03585657370518,99.60159362549801,81.67330677290838,81.67330677290838,81.67330677290838,81.67330677290838,81.67330677290838,81.67330677290838	0,0,0,0,0,0,0,0,0,0,0,0,0,0,0,0,0,1,0,0,0,0,0	0,0,0,0,0,0,0,0,0,0,0,0,0,0,0,0,0,0,0,0,0,0,0	0,0,0,0,0,0,0,0,0,0,0,0,0,0,0,0,0,1,0,0,0,0,0
DEAD_CODE	97	97,87,10,89.69072164948454,10.309278350515463,0.11494252873563218	251	22.709163346613543,22.709163346613543,14.342629482071715,14.342629482071715,12.350597609561753,12.350597609561753,5.577689243027888,49.800796812749006,14.342629482071715,49.800796812749006,49.800796812749006,6.772908366533864,11.155378486055776,99.60159362549801,49.800796812749006,62.15139442231076,77.29083665338645,77.29083665338645,77.29083665338645,77.29083665338645,91.23505976095618,99.60159362549801,99.60159362549801,99.60159362549801,99.60159362549801,99.60159362549801,99.60159362549801,99.60159362549801,99.60159362549801,99.60159362549801,99.60159362549801,99.60159362549801,99.60159362549801,99.60159362549801,99.60159362549801,99.60159362549801,99.60159362549801,99.60159362549801,99.60159362549801,99.60159362549801,99.60159362549801,99.60159362549801,99.60159362549801,99.60159362549801,99.60159362549801,99.60159362549801,99.60159362549801,99.60159362549801,99.60159362549801,99.60159362549801,99.60159362549801,99.60159362549801,99.60159362549801,99.60159362549801,99.60159362549801,99.60159362549801,99.60159362549801,99.60159362549801,99.60159362549801,99.60159362549801,99.60159362549801,99.60159362549801,99.60159362549801,99.60159362549801,99.60159362549801,99.60159362549801,99.60159362549801,99.60159362549801,99.60159362549801,91.23505976095618,91.23505976095618,91.23505976095618,91.23505976095618,91.23505976095618,91.23505976095618,91.23505976095618,77.29083665338645,77.29083665338645,77.29083665338645,77.29083665338645,54.980079681274894,54.980079681274894,54.980079681274894,54.980079681274894,54.980079681274894,54.980079681274894,54.980079681274894,54.980079681274894,54.980079681274894,54.980079681274894,54.980079681274894,13.94422310756972,13.94422310756972,13.94422310756972,13.94422310756972,11.155378486055776,4.780876494023905	0,0,0,0,0,0,0,0,0,0,0,0,1,0,0,0,1,1,1,1,1,0,0,0,0,0,0,0,0,0,0,0,0,0,0,0,0,0,0,0,0,0,0,0,0,0,0,0,0,0,0,0,0,0,0,0,0,0,0,0,0,0,0,0,0,0,0,0,0,0,0,0,0,0,0,0,0,0,0,0,0,0,0,0,0,0,0,0,0,0,0,0,0,0,0,0,0	0,0,0,0,0,0,0,0,0,0,0,0,0,0,0,0,0,0,0,0,0,0,0,0,0,0,0,0,0,0,0,0,0,0,0,0,0,0,0,0,0,0,0,0,0,0,0,0,0,0,0,0,0,0,0,0,0,0,0,0,0,0,0,0,0,0,0,0,0,0,0,0,0,0,0,0,0,0,0,0,0,0,0,0,0,0,0,0,0,0,0,0,0,0,0,0,0	0,0,0,0,0,0,0,0,0,0,0,0,0,0,0,0,1,1,1,1,1,0,0,0,0,0,0,0,0,0,0,0,0,0,0,0,0,0,0,0,0,0,0,0,0,0,0,0,0,0,0,0,0,0,0,0,0,0,0,0,0,0,0,0,0,0,0,0,0,0,0,0,0,0,0,0,0,0,0,0,0,0,0,0,0,0,0,0,0,0,0,0,0,0,0,0,0
FEATURE_ENVY	20	20,6,14,30.0,70.0,2.3333333333333335	251	29.482071713147413,1.1952191235059761,37.84860557768924,37.84860557768924,37.84860557768924,37.84860557768924,11.553784860557768,37.84860557768924,29.482071713147413,11.553784860557768,11.553784860557768,12.749003984063744,12.749003984063744,12.749003984063744,99.60159362549801,99.60159362549801,99.60159362549801,62.15139442231076,49.800796812749006,41.03585657370518	1,1,3,4,1,1,1,6,2,0,2,0,0,0,3,3,10,0,0,0	0,0,0,0,0,0,0,0,0,0,0,0,0,0,0,0,0,0,0,0	0,0,12,12,12,12,0,12,0,0,0,0,0,0,12,12,12,0,0,0
NESTED_BLOCK_DEPTH	6	6,4,2,66.66666666666666,33.33333333333333,0.5	251	20.318725099601593,1.593625498007968,99.60159362549801,91.23505976095618,91.23505976095618,81.67330677290838	1,0,0,0,0,3	0,0,0,0,0,0	10,0,0,0,0,10
COMPLEX_CONDITION	1	1,1,0,100.0,0.0,0.0	251	99.60159362549801	0	0	0
SHOTGUN_SURGERY	1	1,1,0,100.0,0.0,0.0	251	40.23904382470119	0	0	0
ClASS_DATA_SHOULD_BE_PRIVATE	1	1,1,0,100.0,0.0,0.0	251	99.60159362549801	0	0	0
GOD_CLASS	3	3,3,0,100.0,0.0,0.0	251	14.741035856573706,91.23505976095618,91.23505976095618	0,0,0	0,0,0	0,0,0
