22,3,19,13.636363636363635,86.36363636363636,6.333333333333333
DATA_CLASS	6	6,1,5,16.666666666666664,83.33333333333334,5.0	150	8.0,8.0,8.0,8.0,8.0,87.33333333333333	0,0,0,0,0,4	0,0,0,0,0,0	0,0,0,0,0,2
DEAD_CODE	5	5,1,4,20.0,80.0,4.0	150	8.0,14.666666666666666,2.0,2.666666666666667,96.0	0,1,1,0,2	0,0,0,0,0	0,0,0,0,2
NESTED_BLOCK_DEPTH	6	6,0,6,0.0,100.0,Infinity	150	8.0,9.333333333333334,9.333333333333334,9.333333333333334,7.333333333333333,44.666666666666664	0,1,1,1,1,0	0,0,0,0,0,0	0,0,0,0,0,0
COMPLEX_METHOD	4	4,0,4,0.0,100.0,Infinity	150	7.333333333333333,3.3333333333333335,51.33333333333333,42.0	1,1,0,0	0,0,0,0	0,0,0,0
COMPLEX_CONDITION	1	1,1,0,100.0,0.0,0.0	150	7.333333333333333	0	0	0
