76,63,13,82.89473684210526,17.105263157894736,0.20634920634920634
DEAD_CODE	14	14,8,6,57.14285714285714,42.857142857142854,0.75	231	3.896103896103896,81.81818181818183,6.0606060606060606,6.0606060606060606,81.81818181818183,81.81818181818183,48.917748917748916,39.39393939393939,81.81818181818183,81.81818181818183,76.62337662337663,49.78354978354979,81.81818181818183,81.81818181818183	0,0,1,1,0,0,0,0,0,0,0,0,0,0	0,0,0,0,0,0,0,0,0,0,0,0,0,0	0,0,0,0,0,0,0,0,0,0,0,0,0,0
DATA_CLASS	9	9,7,2,77.77777777777779,22.22222222222222,0.2857142857142857	231	3.896103896103896,6.0606060606060606,81.81818181818183,72.72727272727273,29.43722943722944,51.94805194805194,81.81818181818183,81.81818181818183,81.81818181818183	0,1,0,0,0,0,0,0,0	0,0,0,0,0,0,0,0,0	0,0,0,0,0,0,0,0,0
FEATURE_ENVY	29	29,25,4,86.20689655172413,13.793103448275861,0.16	231	0.8658008658008658,0.8658008658008658,81.81818181818183,81.38528138528139,81.81818181818183,81.81818181818183,52.81385281385281,81.81818181818183,33.33333333333333,52.81385281385281,81.81818181818183,81.81818181818183,19.047619047619047,19.047619047619047,81.81818181818183,81.81818181818183,81.81818181818183,81.81818181818183,72.72727272727273,81.81818181818183,81.81818181818183,81.81818181818183,81.81818181818183,81.81818181818183,81.81818181818183,81.81818181818183,81.81818181818183,81.81818181818183,81.81818181818183	0,1,0,0,0,0,2,0,0,3,0,0,0,0,0,0,0,0,0,0,0,0,0,0,0,0,0,0,0	0,0,0,0,0,0,0,0,0,0,0,0,0,0,0,0,0,0,0,0,0,0,0,0,0,0,0,0,0	0,0,0,0,0,0,0,0,0,0,0,0,0,0,0,0,0,0,0,0,0,0,0,0,0,0,0,0,0
NESTED_BLOCK_DEPTH	12	12,12,0,100.0,0.0,0.0	231	81.81818181818183,81.81818181818183,81.81818181818183,81.81818181818183,81.81818181818183,81.81818181818183,81.81818181818183,81.81818181818183,81.81818181818183,55.41125541125541,28.13852813852814,81.81818181818183	0,0,0,0,0,0,0,0,0,0,0,0	0,0,0,0,0,0,0,0,0,0,0,0	0,0,0,0,0,0,0,0,0,0,0,0
ClASS_DATA_SHOULD_BE_PRIVATE	1	1,1,0,100.0,0.0,0.0	231	81.81818181818183	0	0	0
COMPLEX_METHOD	5	5,5,0,100.0,0.0,0.0	231	81.81818181818183,81.81818181818183,81.81818181818183,28.13852813852814,81.81818181818183	0,0,0,0,0	0,0,0,0,0	0,0,0,0,0
LONG_PARAM	1	1,1,0,100.0,0.0,0.0	231	81.81818181818183	0	0	0
TRADITION_BREAKER	1	1,0,1,0.0,100.0,Infinity	231	9.956709956709958	1	0	0
GOD_CLASS	2	2,2,0,100.0,0.0,0.0	231	81.81818181818183,15.151515151515152	0,0	0,0	0,0
SHOTGUN_SURGERY	1	1,1,0,100.0,0.0,0.0	231	72.72727272727273	0	0	0
BRAIN_METHOD	1	1,1,0,100.0,0.0,0.0	231	63.20346320346321	0	0	0
